# MagicaVoxel @ Ephtracy

# group
g wood_bridge_01

# material
mtllib wood_bridge_01.mtl
usemtl palette

# normals
vn -1 0 0
vn 1 0 0
vn 0 0 1
vn 0 0 -1
vn 0 -1 0
vn 0 1 0

# texcoords
vt 0.923828 0.5
vt 0.927734 0.5

# verts
v -12.5 0 11
v -12.5 0 10
v -12.5 0 8
v -12.5 0 -8
v -12.5 0 -9
v -12.5 0 -10
v -12.5 0 -11
v -12.5 1 13
v -12.5 1 11
v -12.5 1 10
v -12.5 1 8
v -12.5 1 -2
v -12.5 1 -3
v -12.5 1 -8
v -12.5 1 -9
v -12.5 1 -10
v -12.5 1 -11
v -12.5 1 -13
v -12.5 2 12
v -12.5 2 10
v -12.5 2 -3
v -12.5 2 -4
v -12.5 3 13
v -12.5 3 12
v -12.5 3 10
v -12.5 3 -2
v -12.5 3 -4
v -12.5 3 -13
v -7.5 1 13
v -7.5 1 11
v -7.5 1 10
v -7.5 1 9
v -7.5 1 8
v -7.5 1 -0
v -7.5 1 -6
v -7.5 1 -8
v -7.5 1 -10
v -7.5 1 -11
v -7.5 1 -13
v -7.5 2 6
v -7.5 2 -0
v -7.5 2 -6
v -7.5 3 13
v -7.5 3 6
v -7.5 3 -0
v -7.5 3 -13
v -0.5 1 13
v -0.5 1 11
v -0.5 1 8
v -0.5 1 -6
v -0.5 1 -8
v -0.5 1 -10
v -0.5 1 -11
v -0.5 1 -13
v -0.5 2 4
v -0.5 2 2
v -0.5 2 -0
v -0.5 2 -2
v -0.5 2 -3
v -0.5 2 -5
v -0.5 2 -6
v -0.5 2 -10
v -0.5 3 13
v -0.5 3 4
v -0.5 3 2
v -0.5 3 -0
v -0.5 3 -2
v -0.5 3 -3
v -0.5 3 -5
v -0.5 3 -10
v -0.5 3 -13
v 6.5 1 13
v 6.5 1 11
v 6.5 1 8
v 6.5 1 -7
v 6.5 1 -8
v 6.5 1 -9
v 6.5 1 -10
v 6.5 1 -11
v 6.5 1 -13
v 6.5 2 -6
v 6.5 2 -7
v 6.5 2 -8
v 6.5 2 -9
v 6.5 3 13
v 6.5 3 -6
v 6.5 3 -8
v 6.5 3 -13
v -8.5 1 13
v -8.5 1 11
v -8.5 1 10
v -8.5 1 9
v -8.5 1 8
v -8.5 1 -8
v -8.5 1 -10
v -8.5 1 -11
v -8.5 1 -13
v -8.5 2 13
v -8.5 2 11
v -8.5 2 -0
v -8.5 2 -1
v -8.5 3 13
v -8.5 3 11
v -8.5 3 -0
v -8.5 3 -1
v -8.5 3 -13
v -2.5 1 13
v -2.5 1 11
v -2.5 1 8
v -2.5 1 -6
v -2.5 1 -8
v -2.5 1 -10
v -2.5 1 -11
v -2.5 1 -13
v -2.5 2 10
v -2.5 2 9
v -2.5 3 13
v -2.5 3 10
v -2.5 3 9
v -2.5 3 -6
v -2.5 3 -13
v 5.5 1 13
v 5.5 1 11
v 5.5 1 8
v 5.5 1 -8
v 5.5 1 -10
v 5.5 1 -11
v 5.5 1 -13
v 5.5 2 11
v 5.5 2 10
v 5.5 2 3
v 5.5 2 -3
v 5.5 3 13
v 5.5 3 11
v 5.5 3 10
v 5.5 3 3
v 5.5 3 -3
v 5.5 3 -13
v 12.5 0 11
v 12.5 0 8
v 12.5 0 -8
v 12.5 0 -11
v 12.5 1 13
v 12.5 1 11
v 12.5 1 8
v 12.5 1 7
v 12.5 1 6
v 12.5 1 -8
v 12.5 1 -11
v 12.5 1 -13
v 12.5 2 7
v 12.5 2 6
v 12.5 3 13
v 12.5 3 -13
v -12.5 1 13
v -12.5 3 13
v -11.5 2 13
v -11.5 3 13
v -8.5 1 13
v -8.5 2 13
v -8.5 3 13
v -7.5 1 13
v -7.5 3 13
v -4.5 1 13
v -4.5 3 13
v -2.5 1 13
v -2.5 3 13
v -0.5 1 13
v -0.5 3 13
v 0.5 1 13
v 0.5 3 13
v 1.5 1 13
v 1.5 2 13
v 2.5 2 13
v 2.5 3 13
v 3.5 1 13
v 3.5 3 13
v 5.5 1 13
v 5.5 3 13
v 6.5 1 13
v 6.5 3 13
v 9.5 2 13
v 9.5 3 13
v 11.5 2 13
v 11.5 3 13
v 12.5 1 13
v 12.5 3 13
v -12.5 0 11
v -12.5 1 11
v -8.5 0 11
v -8.5 1 11
v -7.5 1 11
v -4.5 0 11
v -4.5 1 11
v -2.5 1 11
v -0.5 1 11
v 3.5 0 11
v 3.5 1 11
v 5.5 0 11
v 5.5 1 11
v 6.5 0 11
v 6.5 1 11
v 7.5 0 11
v 7.5 1 11
v 10.5 0 11
v 10.5 1 11
v 11.5 0 11
v 11.5 1 11
v 12.5 0 11
v 12.5 1 11
v -12.5 0 -8
v -12.5 1 -8
v -11.5 0 -8
v -11.5 1 -8
v -8.5 1 -8
v -7.5 1 -8
v -5.5 0 -8
v -5.5 1 -8
v -2.5 0 -8
v -2.5 1 -8
v -0.5 1 -8
v 4.5 0 -8
v 4.5 1 -8
v 5.5 0 -8
v 5.5 1 -8
v 6.5 0 -8
v 6.5 1 -8
v 7.5 0 -8
v 7.5 1 -8
v 10.5 0 -8
v 10.5 1 -8
v 11.5 0 -8
v 11.5 1 -8
v 12.5 0 -8
v 12.5 1 -8
v -12.5 0 8
v -12.5 1 8
v -11.5 0 8
v -11.5 1 8
v -10.5 0 8
v -10.5 1 8
v -8.5 1 8
v -7.5 1 8
v -4.5 0 8
v -4.5 1 8
v -2.5 1 8
v -0.5 1 8
v 3.5 1 8
v 5.5 1 8
v 6.5 1 8
v 12.5 0 8
v 12.5 1 8
v -12.5 0 -11
v -12.5 1 -11
v -8.5 1 -11
v -7.5 1 -11
v -2.5 1 -11
v -0.5 1 -11
v 5.5 1 -11
v 6.5 0 -11
v 6.5 1 -11
v 12.5 0 -11
v 12.5 1 -11
v -12.5 1 -13
v -12.5 3 -13
v -8.5 1 -13
v -8.5 3 -13
v -7.5 1 -13
v -7.5 3 -13
v -2.5 1 -13
v -2.5 3 -13
v -0.5 1 -13
v -0.5 3 -13
v 5.5 1 -13
v 5.5 3 -13
v 6.5 1 -13
v 6.5 3 -13
v 12.5 1 -13
v 12.5 3 -13
v -12.5 0 11
v -8.5 0 11
v -4.5 0 11
v 3.5 0 11
v 5.5 0 11
v 6.5 0 11
v 7.5 0 11
v 10.5 0 11
v 11.5 0 11
v 12.5 0 11
v -12.5 0 10
v -11.5 0 10
v -10.5 0 10
v -9.5 0 10
v -8.5 0 10
v -4.5 0 10
v 3.5 0 10
v 5.5 0 10
v 6.5 0 10
v 7.5 0 10
v 8.5 0 10
v 10.5 0 10
v -9.5 0 9
v -4.5 0 9
v 8.5 0 9
v 11.5 0 9
v -12.5 0 8
v -11.5 0 8
v -10.5 0 8
v -4.5 0 8
v 12.5 0 8
v -12.5 0 -8
v -11.5 0 -8
v -5.5 0 -8
v -2.5 0 -8
v 4.5 0 -8
v 5.5 0 -8
v 6.5 0 -8
v 7.5 0 -8
v 10.5 0 -8
v 11.5 0 -8
v 12.5 0 -8
v -12.5 0 -9
v -11.5 0 -9
v -5.5 0 -9
v -2.5 0 -9
v 4.5 0 -9
v 5.5 0 -9
v 6.5 0 -9
v 7.5 0 -9
v 10.5 0 -9
v 11.5 0 -9
v -12.5 0 -10
v 6.5 0 -10
v -12.5 0 -11
v 6.5 0 -11
v 12.5 0 -11
v -12.5 1 13
v -8.5 1 13
v -7.5 1 13
v -4.5 1 13
v -2.5 1 13
v -0.5 1 13
v 0.5 1 13
v 1.5 1 13
v 3.5 1 13
v 5.5 1 13
v 6.5 1 13
v 12.5 1 13
v 0.5 1 12
v 1.5 1 12
v -12.5 1 11
v -8.5 1 11
v -7.5 1 11
v -4.5 1 11
v -2.5 1 11
v -0.5 1 11
v 3.5 1 11
v 5.5 1 11
v 6.5 1 11
v 7.5 1 11
v 10.5 1 11
v 11.5 1 11
v 12.5 1 11
v -12.5 1 8
v -11.5 1 8
v -10.5 1 8
v -8.5 1 8
v -7.5 1 8
v -4.5 1 8
v -2.5 1 8
v -0.5 1 8
v 3.5 1 8
v 5.5 1 8
v 6.5 1 8
v 12.5 1 8
v 10.5 1 7
v 12.5 1 7
v 10.5 1 6
v 12.5 1 6
v -7.5 1 -0
v -6.5 1 -0
v -12.5 1 -2
v -11.5 1 -2
v -12.5 1 -3
v -11.5 1 -3
v -7.5 1 -6
v -6.5 1 -6
v -4.5 1 -6
v -2.5 1 -6
v -0.5 1 -6
v 3.5 1 -6
v 6.5 1 -7
v 7.5 1 -7
v -12.5 1 -8
v -11.5 1 -8
v -8.5 1 -8
v -7.5 1 -8
v -5.5 1 -8
v -2.5 1 -8
v -0.5 1 -8
v 4.5 1 -8
v 5.5 1 -8
v 6.5 1 -8
v 7.5 1 -8
v 10.5 1 -8
v 11.5 1 -8
v 12.5 1 -8
v -12.5 1 -11
v -8.5 1 -11
v -7.5 1 -11
v -2.5 1 -11
v -0.5 1 -11
v 5.5 1 -11
v 6.5 1 -11
v 12.5 1 -11
v -12.5 1 -13
v -8.5 1 -13
v -7.5 1 -13
v -2.5 1 -13
v -0.5 1 -13
v 5.5 1 -13
v 6.5 1 -13
v 12.5 1 -13
v -8.5 1 11
v -7.5 1 11
v -2.5 1 11
v -0.5 1 11
v 5.5 1 11
v 6.5 1 11
v -8.5 1 10
v -7.5 1 10
v -8.5 1 9
v -7.5 1 9
v -8.5 1 8
v -7.5 1 8
v -2.5 1 8
v -0.5 1 8
v 5.5 1 8
v 6.5 1 8
v -8.5 1 -8
v -7.5 1 -8
v -2.5 1 -8
v -0.5 1 -8
v 5.5 1 -8
v 6.5 1 -8
v 6.5 1 -9
v -8.5 1 -10
v -7.5 1 -10
v -2.5 1 -10
v -0.5 1 -10
v 5.5 1 -10
v 6.5 1 -10
v -8.5 1 -11
v -7.5 1 -11
v -2.5 1 -11
v -0.5 1 -11
v 5.5 1 -11
v 6.5 1 -11
v -12.5 3 13
v -11.5 3 13
v -8.5 3 13
v -7.5 3 13
v -4.5 3 13
v -2.5 3 13
v -0.5 3 13
v 0.5 3 13
v 2.5 3 13
v 3.5 3 13
v 5.5 3 13
v 6.5 3 13
v 9.5 3 13
v 11.5 3 13
v 12.5 3 13
v -12.5 3 12
v -11.5 3 12
v 0.5 3 12
v 2.5 3 12
v 8.5 3 12
v 9.5 3 12
v 10.5 3 12
v 11.5 3 12
v -10.5 3 11
v -8.5 3 11
v 4.5 3 11
v 5.5 3 11
v -12.5 3 10
v -11.5 3 10
v -4.5 3 10
v -2.5 3 10
v 0.5 3 10
v 1.5 3 10
v 4.5 3 10
v 5.5 3 10
v -6.5 3 9
v -5.5 3 9
v -3.5 3 9
v -2.5 3 9
v 1.5 3 9
v 2.5 3 9
v 10.5 3 9
v 11.5 3 9
v -5.5 3 8
v -3.5 3 8
v 0.5 3 8
v 1.5 3 8
v 8.5 3 8
v 10.5 3 8
v 2.5 3 7
v 3.5 3 7
v 10.5 3 7
v 11.5 3 7
v -7.5 3 6
v -6.5 3 6
v 1.5 3 6
v 3.5 3 6
v -6.5 3 5
v -4.5 3 5
v 7.5 3 5
v 9.5 3 5
v -0.5 3 4
v 1.5 3 4
v -11.5 3 3
v -10.5 3 3
v -9.5 3 3
v 4.5 3 3
v 5.5 3 3
v -6.5 3 2
v -5.5 3 2
v -0.5 3 2
v 1.5 3 2
v 2.5 3 1
v 3.5 3 1
v -9.5 3 -0
v -8.5 3 -0
v -7.5 3 -0
v -6.5 3 -0
v -0.5 3 -0
v 2.5 3 -0
v -10.5 3 -1
v -8.5 3 -1
v 0.5 3 -1
v 3.5 3 -1
v -12.5 3 -2
v -11.5 3 -2
v -6.5 3 -2
v -5.5 3 -2
v -0.5 3 -2
v 0.5 3 -2
v -11.5 3 -3
v -10.5 3 -3
v -0.5 3 -3
v 0.5 3 -3
v 4.5 3 -3
v 5.5 3 -3
v -12.5 3 -4
v -10.5 3 -4
v -9.5 3 -4
v 0.5 3 -4
v 1.5 3 -4
v 7.5 3 -4
v 9.5 3 -4
v -10.5 3 -5
v -9.5 3 -5
v -6.5 3 -5
v -4.5 3 -5
v -0.5 3 -5
v 0.5 3 -5
v -4.5 3 -6
v -2.5 3 -6
v 0.5 3 -6
v 1.5 3 -6
v 3.5 3 -6
v 4.5 3 -6
v 6.5 3 -6
v 8.5 3 -6
v 8.5 3 -7
v 9.5 3 -7
v 2.5 3 -8
v 4.5 3 -8
v 6.5 3 -8
v 9.5 3 -8
v 10.5 3 -8
v -6.5 3 -9
v -4.5 3 -9
v 9.5 3 -9
v 10.5 3 -9
v -11.5 3 -10
v -10.5 3 -10
v -0.5 3 -10
v 2.5 3 -10
v -11.5 3 -11
v -10.5 3 -11
v -12.5 3 -13
v -8.5 3 -13
v -7.5 3 -13
v -2.5 3 -13
v -0.5 3 -13
v 5.5 3 -13
v 6.5 3 -13
v 12.5 3 -13

# faces
f 9/2/1 2/2/1 1/2/1
f 10/1/1 3/1/1 2/1/1
f 10/2/1 2/2/1 9/2/1
f 11/1/1 3/1/1 10/1/1
f 14/1/1 5/1/1 4/1/1
f 15/2/1 6/2/1 5/2/1
f 15/1/1 5/1/1 14/1/1
f 16/1/1 7/1/1 6/1/1
f 16/2/1 6/2/1 15/2/1
f 17/1/1 7/1/1 16/1/1
f 19/1/1 9/1/1 8/1/1
f 19/1/1 10/1/1 9/1/1
f 19/1/1 11/1/1 10/1/1
f 19/1/1 12/1/1 11/1/1
f 20/1/1 12/1/1 19/1/1
f 21/1/1 15/1/1 14/1/1
f 21/1/1 18/1/1 17/1/1
f 21/2/1 13/2/1 12/2/1
f 21/1/1 14/1/1 13/1/1
f 21/1/1 17/1/1 16/1/1
f 21/1/1 16/1/1 15/1/1
f 22/1/1 18/1/1 21/1/1
f 23/1/1 19/1/1 8/1/1
f 24/2/1 20/2/1 19/2/1
f 24/1/1 19/1/1 23/1/1
f 25/1/1 12/1/1 20/1/1
f 25/2/1 20/2/1 24/2/1
f 26/2/1 21/2/1 12/2/1
f 26/1/1 12/1/1 25/1/1
f 26/2/1 22/2/1 21/2/1
f 27/1/1 18/1/1 22/1/1
f 27/2/1 22/2/1 26/2/1
f 28/1/1 18/1/1 27/1/1
f 40/1/1 30/1/1 29/1/1
f 40/1/1 31/1/1 30/1/1
f 40/1/1 32/1/1 31/1/1
f 40/1/1 33/1/1 32/1/1
f 40/1/1 34/1/1 33/1/1
f 41/2/1 35/2/1 34/2/1
f 41/1/1 34/1/1 40/1/1
f 42/1/1 39/1/1 38/1/1
f 42/2/1 35/2/1 41/2/1
f 42/1/1 38/1/1 37/1/1
f 42/1/1 37/1/1 36/1/1
f 42/1/1 36/1/1 35/1/1
f 43/1/1 40/1/1 29/1/1
f 44/2/1 41/2/1 40/2/1
f 44/1/1 40/1/1 43/1/1
f 45/1/1 42/1/1 41/1/1
f 45/2/1 41/2/1 44/2/1
f 46/1/1 39/1/1 42/1/1
f 46/1/1 42/1/1 45/1/1
f 55/2/1 48/2/1 47/2/1
f 55/2/1 49/2/1 48/2/1
f 55/2/1 50/2/1 49/2/1
f 56/2/1 50/2/1 55/2/1
f 57/2/1 50/2/1 56/2/1
f 58/2/1 50/2/1 57/2/1
f 59/2/1 50/2/1 58/2/1
f 60/2/1 50/2/1 59/2/1
f 61/1/1 54/1/1 53/1/1
f 61/2/1 50/2/1 60/2/1
f 61/1/1 53/1/1 52/1/1
f 61/1/1 52/1/1 51/1/1
f 61/1/1 51/1/1 50/1/1
f 62/1/1 54/1/1 61/1/1
f 63/2/1 55/2/1 47/2/1
f 64/1/1 56/1/1 55/1/1
f 64/2/1 55/2/1 63/2/1
f 65/2/1 57/2/1 56/2/1
f 65/1/1 56/1/1 64/1/1
f 66/1/1 58/1/1 57/1/1
f 66/2/1 57/2/1 65/2/1
f 67/2/1 59/2/1 58/2/1
f 67/1/1 58/1/1 66/1/1
f 68/1/1 60/1/1 59/1/1
f 68/2/1 59/2/1 67/2/1
f 69/2/1 61/2/1 60/2/1
f 69/1/1 60/1/1 68/1/1
f 69/2/1 62/2/1 61/2/1
f 70/1/1 54/1/1 62/1/1
f 70/2/1 62/2/1 69/2/1
f 71/1/1 54/1/1 70/1/1
f 81/1/1 73/1/1 72/1/1
f 81/1/1 74/1/1 73/1/1
f 81/1/1 75/1/1 74/1/1
f 82/2/1 76/2/1 75/2/1
f 82/1/1 75/1/1 81/1/1
f 82/2/1 77/2/1 76/2/1
f 83/2/1 77/2/1 82/2/1
f 84/1/1 80/1/1 79/1/1
f 84/2/1 77/2/1 83/2/1
f 84/1/1 79/1/1 78/1/1
f 84/1/1 78/1/1 77/1/1
f 85/1/1 81/1/1 72/1/1
f 86/2/1 83/2/1 82/2/1
f 86/1/1 81/1/1 85/1/1
f 86/2/1 82/2/1 81/2/1
f 87/1/1 84/1/1 83/1/1
f 87/2/1 83/2/1 86/2/1
f 88/1/1 80/1/1 84/1/1
f 88/1/1 84/1/1 87/1/1
f 89/1/2 90/1/2 98/1/2
f 96/1/2 97/1/2 98/1/2
f 95/1/2 96/1/2 98/1/2
f 94/1/2 95/1/2 98/1/2
f 93/1/2 94/1/2 98/1/2
f 92/1/2 93/1/2 98/1/2
f 91/1/2 92/1/2 98/1/2
f 90/1/2 91/1/2 98/1/2
f 98/1/2 97/1/2 99/1/2
f 99/1/2 97/1/2 100/1/2
f 100/1/2 97/1/2 101/1/2
f 98/2/2 99/2/2 102/2/2
f 99/1/2 100/1/2 103/1/2
f 102/2/2 99/2/2 103/2/2
f 100/2/2 101/2/2 104/2/2
f 103/1/2 100/1/2 104/1/2
f 101/1/2 97/1/2 105/1/2
f 104/2/2 101/2/2 105/2/2
f 105/1/2 97/1/2 106/1/2
f 107/2/2 108/2/2 115/2/2
f 108/2/2 109/2/2 115/2/2
f 109/2/2 110/2/2 115/2/2
f 115/2/2 110/2/2 116/2/2
f 107/2/2 115/2/2 117/2/2
f 115/1/2 116/1/2 118/1/2
f 117/2/2 115/2/2 118/2/2
f 116/2/2 110/2/2 119/2/2
f 118/1/2 116/1/2 119/1/2
f 113/1/2 114/1/2 120/1/2
f 119/2/2 110/2/2 120/2/2
f 112/1/2 113/1/2 120/1/2
f 111/1/2 112/1/2 120/1/2
f 110/1/2 111/1/2 120/1/2
f 120/1/2 114/1/2 121/1/2
f 122/1/2 123/1/2 129/1/2
f 127/1/2 128/1/2 129/1/2
f 126/1/2 127/1/2 129/1/2
f 125/1/2 126/1/2 129/1/2
f 124/1/2 125/1/2 129/1/2
f 123/1/2 124/1/2 129/1/2
f 129/1/2 128/1/2 130/1/2
f 130/1/2 128/1/2 131/1/2
f 131/1/2 128/1/2 132/1/2
f 122/1/2 129/1/2 133/1/2
f 129/2/2 130/2/2 134/2/2
f 133/1/2 129/1/2 134/1/2
f 130/1/2 131/1/2 135/1/2
f 134/2/2 130/2/2 135/2/2
f 131/2/2 132/2/2 136/2/2
f 135/1/2 131/1/2 136/1/2
f 132/1/2 128/1/2 137/1/2
f 136/2/2 132/2/2 137/2/2
f 137/1/2 128/1/2 138/1/2
f 139/2/2 140/2/2 144/2/2
f 144/2/2 140/2/2 145/2/2
f 141/2/2 142/2/2 148/2/2
f 148/2/2 142/2/2 149/2/2
f 146/2/2 147/2/2 151/2/2
f 143/1/2 144/1/2 151/1/2
f 144/1/2 145/1/2 151/1/2
f 145/1/2 146/1/2 151/1/2
f 149/1/2 150/1/2 152/1/2
f 151/2/2 147/2/2 152/2/2
f 148/1/2 149/1/2 152/1/2
f 147/1/2 148/1/2 152/1/2
f 143/1/2 151/1/2 153/1/2
f 151/1/2 152/1/2 153/1/2
f 152/1/2 150/1/2 154/1/2
f 153/1/2 152/1/2 154/1/2
f 157/1/3 156/1/3 155/1/3
f 158/1/3 156/1/3 157/1/3
f 159/1/3 157/1/3 155/1/3
f 160/2/3 158/2/3 157/2/3
f 160/1/3 157/1/3 159/1/3
f 161/2/3 158/2/3 160/2/3
f 164/1/3 163/1/3 162/1/3
f 165/1/3 163/1/3 164/1/3
f 166/2/3 165/2/3 164/2/3
f 167/2/3 165/2/3 166/2/3
f 170/2/3 169/2/3 168/2/3
f 171/2/3 169/2/3 170/2/3
f 172/1/3 171/1/3 170/1/3
f 173/1/3 171/1/3 172/1/3
f 174/2/3 173/2/3 172/2/3
f 174/1/3 171/1/3 173/1/3
f 175/1/3 171/1/3 174/1/3
f 176/2/3 174/2/3 172/2/3
f 176/2/3 175/2/3 174/2/3
f 177/2/3 175/2/3 176/2/3
f 178/1/3 177/1/3 176/1/3
f 179/1/3 177/1/3 178/1/3
f 182/1/3 181/1/3 180/1/3
f 183/1/3 181/1/3 182/1/3
f 184/1/3 182/1/3 180/1/3
f 184/2/3 183/2/3 182/2/3
f 185/2/3 183/2/3 184/2/3
f 186/1/3 184/1/3 180/1/3
f 186/1/3 185/1/3 184/1/3
f 187/1/3 185/1/3 186/1/3
f 190/2/3 189/2/3 188/2/3
f 191/2/3 189/2/3 190/2/3
f 192/1/3 191/1/3 190/1/3
f 193/1/3 192/1/3 190/1/3
f 194/1/3 192/1/3 193/1/3
f 195/2/3 194/2/3 193/2/3
f 196/2/3 195/2/3 193/2/3
f 197/2/3 196/2/3 193/2/3
f 198/2/3 196/2/3 197/2/3
f 199/1/3 198/1/3 197/1/3
f 200/1/3 198/1/3 199/1/3
f 201/2/3 200/2/3 199/2/3
f 202/2/3 200/2/3 201/2/3
f 203/1/3 202/1/3 201/1/3
f 204/1/3 202/1/3 203/1/3
f 205/2/3 204/2/3 203/2/3
f 206/2/3 204/2/3 205/2/3
f 207/1/3 206/1/3 205/1/3
f 208/1/3 206/1/3 207/1/3
f 209/2/3 208/2/3 207/2/3
f 210/2/3 208/2/3 209/2/3
f 213/1/3 212/1/3 211/1/3
f 214/1/3 212/1/3 213/1/3
f 215/2/3 214/2/3 213/2/3
f 216/2/3 215/2/3 213/2/3
f 217/2/3 216/2/3 213/2/3
f 218/2/3 216/2/3 217/2/3
f 219/1/3 218/1/3 217/1/3
f 220/1/3 218/1/3 219/1/3
f 221/2/3 220/2/3 219/2/3
f 222/2/3 221/2/3 219/2/3
f 223/2/3 221/2/3 222/2/3
f 224/1/3 223/1/3 222/1/3
f 225/1/3 223/1/3 224/1/3
f 226/2/3 225/2/3 224/2/3
f 227/2/3 225/2/3 226/2/3
f 228/1/3 227/1/3 226/1/3
f 229/1/3 227/1/3 228/1/3
f 230/2/3 229/2/3 228/2/3
f 231/2/3 229/2/3 230/2/3
f 232/1/3 231/1/3 230/1/3
f 233/1/3 231/1/3 232/1/3
f 234/2/3 233/2/3 232/2/3
f 235/2/3 233/2/3 234/2/3
f 236/1/4 237/1/4 238/1/4
f 238/1/4 237/1/4 239/1/4
f 238/2/4 239/2/4 240/2/4
f 240/2/4 239/2/4 241/2/4
f 240/1/4 241/1/4 242/1/4
f 240/1/4 242/1/4 243/1/4
f 240/1/4 243/1/4 244/1/4
f 244/1/4 243/1/4 245/1/4
f 244/2/4 245/2/4 246/2/4
f 244/2/4 246/2/4 247/2/4
f 244/2/4 247/2/4 248/2/4
f 244/2/4 248/2/4 249/2/4
f 244/2/4 249/2/4 250/2/4
f 244/2/4 250/2/4 251/2/4
f 251/2/4 250/2/4 252/2/4
f 253/1/4 254/1/4 255/1/4
f 253/1/4 255/1/4 256/1/4
f 253/1/4 256/1/4 257/1/4
f 253/1/4 257/1/4 258/1/4
f 253/1/4 258/1/4 259/1/4
f 253/1/4 259/1/4 260/1/4
f 260/1/4 259/1/4 261/1/4
f 260/2/4 261/2/4 262/2/4
f 262/2/4 261/2/4 263/2/4
f 264/1/4 265/1/4 266/1/4
f 266/1/4 265/1/4 267/1/4
f 268/1/4 269/1/4 270/1/4
f 270/1/4 269/1/4 271/1/4
f 272/1/4 273/1/4 274/1/4
f 274/1/4 273/1/4 275/1/4
f 276/1/4 277/1/4 278/1/4
f 278/1/4 277/1/4 279/1/4
f 290/2/5 281/2/5 280/2/5
f 291/2/5 281/2/5 290/2/5
f 292/2/5 281/2/5 291/2/5
f 293/2/5 281/2/5 292/2/5
f 294/1/5 282/1/5 281/1/5
f 294/2/5 281/2/5 293/2/5
f 295/2/5 283/2/5 282/2/5
f 295/1/5 282/1/5 294/1/5
f 296/1/5 284/1/5 283/1/5
f 296/2/5 283/2/5 295/2/5
f 297/2/5 285/2/5 284/2/5
f 297/1/5 284/1/5 296/1/5
f 298/1/5 286/1/5 285/1/5
f 298/2/5 285/2/5 297/2/5
f 299/2/5 287/2/5 286/2/5
f 299/1/5 286/1/5 298/1/5
f 300/2/5 287/2/5 299/2/5
f 301/1/5 288/1/5 287/1/5
f 301/2/5 287/2/5 300/2/5
f 302/1/5 293/1/5 292/1/5
f 302/2/5 294/2/5 293/2/5
f 302/2/5 295/2/5 294/2/5
f 302/2/5 299/2/5 298/2/5
f 302/2/5 296/2/5 295/2/5
f 302/2/5 297/2/5 296/2/5
f 302/2/5 298/2/5 297/2/5
f 302/2/5 300/2/5 299/2/5
f 303/2/5 300/2/5 302/2/5
f 304/1/5 301/1/5 300/1/5
f 304/2/5 300/2/5 303/2/5
f 305/2/5 289/2/5 288/2/5
f 305/1/5 301/1/5 304/1/5
f 305/1/5 288/1/5 301/1/5
f 306/1/5 291/1/5 290/1/5
f 307/2/5 292/2/5 291/2/5
f 307/1/5 291/1/5 306/1/5
f 308/1/5 302/1/5 292/1/5
f 308/2/5 292/2/5 307/2/5
f 308/1/5 303/1/5 302/1/5
f 309/2/5 304/2/5 303/2/5
f 309/1/5 303/1/5 308/1/5
f 309/2/5 305/2/5 304/2/5
f 310/2/5 289/2/5 305/2/5
f 310/2/5 305/2/5 309/2/5
f 322/1/5 312/1/5 311/1/5
f 323/2/5 313/2/5 312/2/5
f 323/1/5 312/1/5 322/1/5
f 324/1/5 314/1/5 313/1/5
f 324/2/5 313/2/5 323/2/5
f 325/2/5 315/2/5 314/2/5
f 325/1/5 314/1/5 324/1/5
f 326/1/5 316/1/5 315/1/5
f 326/2/5 315/2/5 325/2/5
f 327/2/5 317/2/5 316/2/5
f 327/1/5 316/1/5 326/1/5
f 328/1/5 318/1/5 317/1/5
f 328/2/5 317/2/5 327/2/5
f 329/2/5 319/2/5 318/2/5
f 329/1/5 318/1/5 328/1/5
f 330/1/5 320/1/5 319/1/5
f 330/2/5 319/2/5 329/2/5
f 331/2/5 321/2/5 320/2/5
f 331/1/5 320/1/5 330/1/5
f 332/2/5 330/2/5 329/2/5
f 332/2/5 323/2/5 322/2/5
f 332/2/5 331/2/5 330/2/5
f 332/2/5 329/2/5 328/2/5
f 332/2/5 328/2/5 327/2/5
f 332/2/5 327/2/5 326/2/5
f 332/2/5 326/2/5 325/2/5
f 332/2/5 325/2/5 324/2/5
f 332/2/5 324/2/5 323/2/5
f 333/2/5 331/2/5 332/2/5
f 334/1/5 333/1/5 332/1/5
f 335/2/5 331/2/5 333/2/5
f 335/1/5 333/1/5 334/1/5
f 336/2/5 321/2/5 331/2/5
f 336/2/5 331/2/5 335/2/5
f 349/2/5 343/2/5 342/2/5
f 349/1/5 344/1/5 343/1/5
f 350/2/5 345/2/5 344/2/5
f 350/1/5 344/1/5 349/1/5
f 351/1/5 338/1/5 337/1/5
f 352/1/5 338/1/5 351/1/5
f 353/1/5 340/1/5 339/1/5
f 354/2/5 341/2/5 340/2/5
f 354/1/5 340/1/5 353/1/5
f 355/2/5 341/2/5 354/2/5
f 356/2/5 349/2/5 342/2/5
f 356/2/5 350/2/5 349/2/5
f 357/2/5 345/2/5 350/2/5
f 357/2/5 350/2/5 356/2/5
f 357/1/5 346/1/5 345/1/5
f 358/1/5 346/1/5 357/1/5
f 359/1/5 348/1/5 347/1/5
f 360/1/5 348/1/5 359/1/5
f 361/1/5 348/1/5 360/1/5
f 362/1/5 348/1/5 361/1/5
f 363/1/5 348/1/5 362/1/5
f 376/1/5 375/1/5 374/1/5
f 377/1/5 375/1/5 376/1/5
f 378/1/5 376/1/5 374/1/5
f 378/2/5 377/2/5 376/2/5
f 379/2/5 377/2/5 378/2/5
f 380/1/5 369/1/5 368/1/5
f 381/1/5 369/1/5 380/1/5
f 382/1/5 365/1/5 364/1/5
f 382/1/5 366/1/5 365/1/5
f 382/1/5 367/1/5 366/1/5
f 383/1/5 367/1/5 382/1/5
f 384/2/5 383/2/5 382/2/5
f 385/1/5 367/1/5 383/1/5
f 385/2/5 383/2/5 384/2/5
f 386/2/5 381/2/5 380/2/5
f 387/1/5 369/1/5 381/1/5
f 387/2/5 381/2/5 386/2/5
f 388/2/5 370/2/5 369/2/5
f 388/1/5 369/1/5 387/1/5
f 389/2/5 370/2/5 388/2/5
f 390/2/5 372/2/5 371/2/5
f 391/1/5 373/1/5 372/1/5
f 391/2/5 372/2/5 390/2/5
f 392/1/5 378/1/5 374/1/5
f 392/1/5 379/1/5 378/1/5
f 393/1/5 379/1/5 392/1/5
f 394/1/5 385/1/5 384/1/5
f 395/1/5 367/1/5 385/1/5
f 395/1/5 385/1/5 394/1/5
f 396/1/5 367/1/5 395/1/5
f 397/1/5 387/1/5 386/1/5
f 397/1/5 389/1/5 388/1/5
f 397/1/5 388/1/5 387/1/5
f 398/1/5 389/1/5 397/1/5
f 399/1/5 389/1/5 398/1/5
f 400/1/5 391/1/5 390/1/5
f 401/1/5 373/1/5 391/1/5
f 401/1/5 391/1/5 400/1/5
f 402/1/5 373/1/5 401/1/5
f 403/2/5 393/2/5 392/2/5
f 404/1/5 379/1/5 393/1/5
f 404/2/5 393/2/5 403/2/5
f 405/1/5 379/1/5 404/1/5
f 406/1/5 379/1/5 405/1/5
f 407/1/5 379/1/5 406/1/5
f 416/1/5 409/1/5 408/1/5
f 417/1/5 409/1/5 416/1/5
f 418/1/5 411/1/5 410/1/5
f 419/1/5 411/1/5 418/1/5
f 420/1/5 413/1/5 412/1/5
f 421/1/5 413/1/5 420/1/5
f 422/1/5 415/1/5 414/1/5
f 423/1/5 415/1/5 422/1/5
f 424/1/6 425/1/6 430/1/6
f 430/1/6 425/1/6 431/1/6
f 430/2/6 431/2/6 432/2/6
f 432/2/6 431/2/6 433/2/6
f 432/1/6 433/1/6 434/1/6
f 434/1/6 433/1/6 435/1/6
f 426/2/6 427/2/6 436/2/6
f 436/2/6 427/2/6 437/2/6
f 428/2/6 429/2/6 438/2/6
f 438/2/6 429/2/6 439/2/6
f 444/2/6 445/2/6 446/2/6
f 440/2/6 441/2/6 447/2/6
f 447/2/6 441/2/6 448/2/6
f 442/2/6 443/2/6 449/2/6
f 449/2/6 443/2/6 450/2/6
f 444/2/6 446/2/6 451/2/6
f 451/2/6 446/2/6 452/2/6
f 447/1/6 448/1/6 453/1/6
f 453/1/6 448/1/6 454/1/6
f 449/1/6 450/1/6 455/1/6
f 455/1/6 450/1/6 456/1/6
f 451/1/6 452/1/6 457/1/6
f 457/1/6 452/1/6 458/1/6
f 459/1/6 460/1/6 474/1/6
f 460/2/6 461/2/6 475/2/6
f 474/1/6 460/1/6 475/1/6
f 465/2/6 466/2/6 476/2/6
f 466/1/6 467/1/6 476/1/6
f 467/2/6 468/2/6 477/2/6
f 476/1/6 467/1/6 477/1/6
f 470/1/6 471/1/6 478/1/6
f 471/2/6 472/2/6 479/2/6
f 478/1/6 471/1/6 479/1/6
f 479/2/6 472/2/6 480/2/6
f 472/1/6 473/1/6 481/1/6
f 480/2/6 472/2/6 481/2/6
f 475/2/6 461/2/6 482/2/6
f 474/2/6 475/2/6 482/2/6
f 482/2/6 461/2/6 483/2/6
f 468/1/6 469/1/6 484/1/6
f 484/1/6 469/1/6 485/1/6
f 474/2/6 482/2/6 486/2/6
f 486/2/6 482/2/6 487/2/6
f 462/1/6 463/1/6 488/1/6
f 463/2/6 464/2/6 488/2/6
f 488/2/6 464/2/6 489/2/6
f 465/2/6 476/2/6 490/2/6
f 476/2/6 477/2/6 490/2/6
f 490/2/6 477/2/6 491/2/6
f 468/1/6 484/1/6 492/1/6
f 484/2/6 485/2/6 492/2/6
f 492/2/6 485/2/6 493/2/6
f 488/1/6 489/1/6 494/1/6
f 462/1/6 488/1/6 494/1/6
f 494/1/6 489/1/6 495/1/6
f 495/1/6 489/1/6 496/1/6
f 496/1/6 489/1/6 497/1/6
f 491/2/6 477/2/6 498/2/6
f 490/1/6 491/1/6 498/1/6
f 477/2/6 468/2/6 499/2/6
f 498/2/6 477/2/6 499/2/6
f 479/2/6 480/2/6 500/2/6
f 480/1/6 481/1/6 500/1/6
f 478/2/6 479/2/6 500/2/6
f 481/1/6 473/1/6 501/1/6
f 500/1/6 481/1/6 501/1/6
f 494/2/6 495/2/6 502/2/6
f 495/1/6 496/1/6 502/1/6
f 496/2/6 497/2/6 503/2/6
f 502/1/6 496/1/6 503/1/6
f 498/1/6 499/1/6 504/1/6
f 490/1/6 498/1/6 504/1/6
f 465/2/6 490/2/6 504/2/6
f 504/1/6 499/1/6 505/1/6
f 478/2/6 500/2/6 506/2/6
f 470/1/6 478/1/6 506/1/6
f 500/2/6 501/2/6 506/2/6
f 506/2/6 501/2/6 507/2/6
f 499/2/6 468/2/6 508/2/6
f 505/1/6 499/1/6 508/1/6
f 492/1/6 493/1/6 509/1/6
f 508/2/6 468/2/6 509/2/6
f 468/1/6 492/1/6 509/1/6
f 507/2/6 501/2/6 510/2/6
f 506/1/6 507/1/6 510/1/6
f 501/1/6 473/1/6 511/1/6
f 510/2/6 501/2/6 511/2/6
f 462/1/6 494/1/6 512/1/6
f 502/2/6 503/2/6 513/2/6
f 512/1/6 494/1/6 513/1/6
f 494/2/6 502/2/6 513/2/6
f 508/1/6 509/1/6 514/1/6
f 504/2/6 505/2/6 514/2/6
f 505/1/6 508/1/6 514/1/6
f 509/1/6 493/1/6 515/1/6
f 514/1/6 509/1/6 515/1/6
f 513/2/6 503/2/6 516/2/6
f 512/2/6 513/2/6 516/2/6
f 516/2/6 503/2/6 517/2/6
f 506/1/6 510/1/6 518/1/6
f 470/1/6 506/1/6 518/1/6
f 510/1/6 511/1/6 518/1/6
f 518/1/6 511/1/6 519/1/6
f 504/2/6 514/2/6 520/2/6
f 514/2/6 515/2/6 520/2/6
f 465/2/6 504/2/6 520/2/6
f 520/2/6 515/2/6 521/2/6
f 487/2/6 482/2/6 522/2/6
f 486/1/6 487/1/6 522/1/6
f 482/1/6 483/1/6 523/1/6
f 522/2/6 482/2/6 523/2/6
f 523/1/6 483/1/6 524/1/6
f 515/1/6 493/1/6 525/1/6
f 525/1/6 493/1/6 526/1/6
f 516/1/6 517/1/6 527/1/6
f 512/2/6 516/2/6 527/2/6
f 527/1/6 517/1/6 528/1/6
f 520/1/6 521/1/6 529/1/6
f 521/2/6 515/2/6 530/2/6
f 529/1/6 521/1/6 530/1/6
f 529/2/6 530/2/6 531/2/6
f 530/2/6 515/2/6 531/2/6
f 515/1/6 525/1/6 532/1/6
f 531/2/6 515/2/6 532/2/6
f 524/1/6 483/1/6 533/1/6
f 523/2/6 524/2/6 533/2/6
f 533/1/6 483/1/6 534/1/6
f 512/2/6 527/2/6 535/2/6
f 527/2/6 528/2/6 535/2/6
f 535/2/6 528/2/6 536/2/6
f 529/2/6 531/2/6 537/2/6
f 531/1/6 532/1/6 538/1/6
f 537/2/6 531/2/6 538/2/6
f 522/1/6 523/1/6 539/1/6
f 533/2/6 534/2/6 539/2/6
f 523/2/6 533/2/6 539/2/6
f 539/2/6 534/2/6 540/2/6
f 537/1/6 538/1/6 541/1/6
f 532/1/6 525/1/6 542/1/6
f 541/1/6 538/1/6 542/1/6
f 538/1/6 532/1/6 542/1/6
f 486/1/6 522/1/6 543/1/6
f 522/1/6 539/1/6 543/1/6
f 539/1/6 540/1/6 543/1/6
f 543/1/6 540/1/6 544/1/6
f 536/2/6 528/2/6 545/2/6
f 535/1/6 536/1/6 545/1/6
f 528/1/6 517/1/6 546/1/6
f 545/2/6 528/2/6 546/2/6
f 537/1/6 541/1/6 547/1/6
f 541/2/6 542/2/6 548/2/6
f 547/1/6 541/1/6 548/1/6
f 544/1/6 540/1/6 549/1/6
f 543/2/6 544/2/6 549/2/6
f 549/1/6 540/1/6 550/1/6
f 547/2/6 548/2/6 551/2/6
f 548/2/6 542/2/6 552/2/6
f 551/2/6 548/2/6 552/2/6
f 542/1/6 525/1/6 553/1/6
f 525/2/6 526/2/6 553/2/6
f 553/2/6 526/2/6 554/2/6
f 543/2/6 549/2/6 555/2/6
f 549/2/6 550/2/6 555/2/6
f 550/1/6 540/1/6 556/1/6
f 555/2/6 550/2/6 556/2/6
f 556/1/6 540/1/6 557/1/6
f 552/2/6 542/2/6 558/2/6
f 551/1/6 552/1/6 558/1/6
f 558/2/6 542/2/6 559/2/6
f 518/2/6 519/2/6 560/2/6
f 470/1/6 518/1/6 560/1/6
f 519/1/6 511/1/6 561/1/6
f 560/2/6 519/2/6 561/2/6
f 556/2/6 557/2/6 562/2/6
f 555/1/6 556/1/6 562/1/6
f 557/1/6 540/1/6 563/1/6
f 562/2/6 557/2/6 563/2/6
f 535/1/6 545/1/6 564/1/6
f 545/1/6 546/1/6 564/1/6
f 546/1/6 517/1/6 565/1/6
f 564/1/6 546/1/6 565/1/6
f 517/2/6 503/2/6 565/2/6
f 558/1/6 559/1/6 566/1/6
f 551/1/6 558/1/6 566/1/6
f 566/1/6 559/1/6 567/1/6
f 565/2/6 503/2/6 568/2/6
f 564/2/6 565/2/6 568/2/6
f 503/2/6 497/2/6 569/2/6
f 568/2/6 503/2/6 569/2/6
f 567/1/6 559/1/6 570/1/6
f 566/2/6 567/2/6 570/2/6
f 559/2/6 542/2/6 571/2/6
f 570/1/6 559/1/6 571/1/6
f 542/1/6 553/1/6 572/1/6
f 571/2/6 542/2/6 572/2/6
f 553/1/6 554/1/6 572/1/6
f 572/1/6 554/1/6 573/1/6
f 470/1/6 560/1/6 574/1/6
f 560/1/6 561/1/6 574/1/6
f 574/1/6 561/1/6 575/1/6
f 574/2/6 575/2/6 576/2/6
f 575/1/6 561/1/6 576/1/6
f 561/1/6 511/1/6 577/1/6
f 576/1/6 561/1/6 577/1/6
f 570/2/6 571/2/6 578/2/6
f 572/2/6 573/2/6 578/2/6
f 571/2/6 572/2/6 578/2/6
f 573/1/6 554/1/6 579/1/6
f 578/2/6 573/2/6 579/2/6
f 574/2/6 576/2/6 580/2/6
f 576/2/6 577/2/6 580/2/6
f 577/1/6 511/1/6 581/1/6
f 580/2/6 577/2/6 581/2/6
f 581/1/6 511/1/6 582/1/6
f 535/1/6 564/1/6 583/1/6
f 564/2/6 568/2/6 583/2/6
f 568/1/6 569/1/6 584/1/6
f 583/2/6 568/2/6 584/2/6
f 581/2/6 582/2/6 585/2/6
f 580/1/6 581/1/6 585/1/6
f 582/1/6 511/1/6 586/1/6
f 585/2/6 582/2/6 586/2/6
f 555/1/6 562/1/6 587/1/6
f 562/1/6 563/1/6 587/1/6
f 587/1/6 563/1/6 588/1/6
f 570/2/6 578/2/6 589/2/6
f 566/2/6 570/2/6 589/2/6
f 578/1/6 579/1/6 590/1/6
f 589/2/6 578/2/6 590/2/6
f 587/2/6 588/2/6 591/2/6
f 555/1/6 587/1/6 591/1/6
f 588/1/6 563/1/6 592/1/6
f 591/2/6 588/2/6 592/2/6
f 555/1/6 591/1/6 593/1/6
f 591/1/6 592/1/6 593/1/6
f 592/1/6 563/1/6 594/1/6
f 593/1/6 592/1/6 594/1/6
f 563/1/6 540/1/6 594/1/6
f 535/1/6 583/1/6 595/1/6
f 583/1/6 584/1/6 595/1/6
f 584/1/6 569/1/6 596/1/6
f 595/1/6 584/1/6 596/1/6
f 589/1/6 590/1/6 597/1/6
f 590/1/6 579/1/6 598/1/6
f 597/1/6 590/1/6 598/1/6
f 579/1/6 554/1/6 598/1/6
f 580/1/6 585/1/6 599/1/6
f 585/1/6 586/1/6 599/1/6
f 586/1/6 511/1/6 600/1/6
f 599/1/6 586/1/6 600/1/6
f 511/1/6 473/1/6 600/1/6
