%YAML 1.1
%TAG !u! tag:unity3d.com,2011:
--- !u!1 &135942
GameObject:
  m_ObjectHideFlags: 0
  m_PrefabParentObject: {fileID: 0}
  m_PrefabInternal: {fileID: 100100000}
  serializedVersion: 5
  m_Component:
  - component: {fileID: 432704}
  - component: {fileID: 21207772}
  - component: {fileID: 9549478}
  - component: {fileID: 6131608}
  - component: {fileID: 5077978}
  - component: {fileID: 11448292}
  - component: {fileID: 114000012199984804}
  - component: {fileID: 114000013163076738}
  - component: {fileID: 114000011732053140}
  - component: {fileID: 114000010614583896}
  - component: {fileID: 114000011769690978}
  - component: {fileID: 114000013854633004}
  - component: {fileID: 114000013343558808}
  m_Layer: 9
  m_Name: super-hipster-bros
  m_TagString: Player
  m_Icon: {fileID: 0}
  m_NavMeshLayer: 0
  m_StaticEditorFlags: 0
  m_IsActive: 1
--- !u!4 &432704
Transform:
  m_ObjectHideFlags: 1
  m_PrefabParentObject: {fileID: 0}
  m_PrefabInternal: {fileID: 100100000}
  m_GameObject: {fileID: 135942}
  m_LocalRotation: {x: 0, y: 0, z: 0, w: 1}
  m_LocalPosition: {x: -81.71, y: -20.96, z: 0}
  m_LocalScale: {x: 1, y: 1, z: 1}
  m_Children: []
  m_Father: {fileID: 0}
  m_RootOrder: 0
  m_LocalEulerAnglesHint: {x: 0, y: 0, z: 0}
--- !u!50 &5077978
Rigidbody2D:
  serializedVersion: 4
  m_ObjectHideFlags: 1
  m_PrefabParentObject: {fileID: 0}
  m_PrefabInternal: {fileID: 100100000}
  m_GameObject: {fileID: 135942}
  m_BodyType: 1
  m_Simulated: 1
  m_UseFullKinematicContacts: 0
  m_UseAutoMass: 0
  m_Mass: 1
  m_LinearDrag: 0
  m_AngularDrag: 0.05
  m_GravityScale: 1
  m_Material: {fileID: 0}
  m_Interpolate: 0
  m_SleepingMode: 0
  m_CollisionDetection: 0
  m_Constraints: 0
--- !u!61 &6131608
BoxCollider2D:
  m_ObjectHideFlags: 1
  m_PrefabParentObject: {fileID: 0}
  m_PrefabInternal: {fileID: 100100000}
  m_GameObject: {fileID: 135942}
  m_Enabled: 1
  m_Density: 1
  m_Material: {fileID: 0}
  m_IsTrigger: 1
  m_UsedByEffector: 0
  m_UsedByComposite: 0
  m_Offset: {x: 0, y: -0.14}
  m_SpriteTilingProperty:
    border: {x: 0, y: 0, z: 0, w: 0}
    pivot: {x: 0.5, y: 0.5}
    oldSize: {x: 1.28, y: 1.28}
    newSize: {x: 1, y: 1}
    adaptiveTilingThreshold: 0.5
    drawMode: 0
    adaptiveTiling: 0
  m_AutoTiling: 0
  serializedVersion: 2
  m_Size: {x: 0.7, y: 1}
  m_EdgeRadius: 0
--- !u!95 &9549478
Animator:
  serializedVersion: 3
  m_ObjectHideFlags: 1
  m_PrefabParentObject: {fileID: 0}
  m_PrefabInternal: {fileID: 100100000}
  m_GameObject: {fileID: 135942}
  m_Enabled: 1
  m_Avatar: {fileID: 0}
  m_Controller: {fileID: 9100000, guid: 609a148c8b823a347b22f11359e538ae, type: 2}
  m_CullingMode: 0
  m_UpdateMode: 0
  m_ApplyRootMotion: 0
  m_LinearVelocityBlending: 0
  m_WarningMessage: 
  m_HasTransformHierarchy: 1
  m_AllowConstantClipSamplingOptimization: 1
--- !u!114 &11448292
MonoBehaviour:
  m_ObjectHideFlags: 1
  m_PrefabParentObject: {fileID: 0}
  m_PrefabInternal: {fileID: 100100000}
  m_GameObject: {fileID: 135942}
  m_Enabled: 1
  m_EditorHideFlags: 0
  m_Script: {fileID: 11500000, guid: 26d2b97c2edb15b4687c405cac22ec21, type: 3}
  m_Name: 
  m_EditorClassIdentifier: 
  DefaultParameters:
    Gravity: -60
    FallMultiplier: 1.5
    AscentMultiplier: 1
    MaxVelocity: {x: 100, y: 100}
    SpeedAccelerationOnGround: 40
    SpeedAccelerationInAir: 20
    SpeedFactor: 1
    MaximumSlopeAngle: 45
    SlopeAngleSpeedFactor:
      serializedVersion: 2
      m_Curve:
      - serializedVersion: 2
        time: -90
        value: 1
        inSlope: 0
        outSlope: 0
        tangentMode: 0
      - serializedVersion: 2
        time: 0
        value: 1
        inSlope: 0
        outSlope: 0
        tangentMode: 0
      - serializedVersion: 2
        time: 90
        value: 1
        inSlope: 0
        outSlope: 0
        tangentMode: 0
      m_PreInfinity: 2
      m_PostInfinity: 2
      m_RotationOrder: 4
    Physics2DInteraction: 0
    Physics2DPushForce: 2
    DrawRaycastsGizmos: 1
  PlatformMask:
    serializedVersion: 2
    m_Bits: 34867456
  MovingPlatformMask:
    serializedVersion: 2
    m_Bits: 262144
  OneWayPlatformMask:
    serializedVersion: 2
    m_Bits: 2048
  MovingOneWayPlatformMask:
    serializedVersion: 2
    m_Bits: 1048576
  DetachmentMethod: 0
  NumberOfHorizontalRays: 4
  NumberOfVerticalRays: 4
  RayOffset: 0.05
  StickWhenWalkingDownSlopes: 0
  StickyRaycastLength: 0
  AutomaticGravitySettings: 1
--- !u!212 &21207772
SpriteRenderer:
  m_ObjectHideFlags: 1
  m_PrefabParentObject: {fileID: 0}
  m_PrefabInternal: {fileID: 100100000}
  m_GameObject: {fileID: 135942}
  m_Enabled: 1
  m_CastShadows: 0
  m_ReceiveShadows: 0
  m_MotionVectors: 1
  m_LightProbeUsage: 0
  m_ReflectionProbeUsage: 0
  m_Materials:
  - {fileID: 10754, guid: 0000000000000000f000000000000000, type: 0}
  m_StaticBatchInfo:
    firstSubMesh: 0
    subMeshCount: 0
  m_StaticBatchRoot: {fileID: 0}
  m_ProbeAnchor: {fileID: 0}
  m_LightProbeVolumeOverride: {fileID: 0}
  m_ScaleInLightmap: 1
  m_PreserveUVs: 0
  m_IgnoreNormalsForChartDetection: 0
  m_ImportantGI: 0
  m_SelectedEditorRenderState: 0
  m_MinimumChartSize: 4
  m_AutoUVMaxDistance: 0.5
  m_AutoUVMaxAngle: 89
  m_LightmapParameters: {fileID: 0}
  m_SortingLayerID: 0
  m_SortingLayer: 0
  m_SortingOrder: 0
  m_Sprite: {fileID: 21300000, guid: 8720e684ecf7acb4bb921eee3e451b85, type: 3}
  m_Color: {r: 1, g: 1, b: 1, a: 1}
  m_FlipX: 0
  m_FlipY: 0
  m_DrawMode: 0
  m_Size: {x: 1, y: 1}
  m_AdaptiveModeThreshold: 0.5
  m_SpriteTileMode: 0
  m_WasSpriteAssigned: 1
  m_MaskInteraction: 0
--- !u!1001 &100100000
Prefab:
  m_ObjectHideFlags: 1
  serializedVersion: 2
  m_Modification:
    m_TransformParent: {fileID: 0}
    m_Modifications:
    - target: {fileID: 0}
      propertyPath: DefaultParameters.Physics2DInteraction
      value: 0
      objectReference: {fileID: 0}
    - target: {fileID: 0}
      propertyPath: m_IsTrigger
      value: 1
      objectReference: {fileID: 0}
    - target: {fileID: 0}
      propertyPath: DefaultParameters.Gravity
      value: -30
      objectReference: {fileID: 0}
    - target: {fileID: 0}
      propertyPath: DefaultParameters.SpeedAccelerationOnGround
      value: 40
      objectReference: {fileID: 0}
    - target: {fileID: 0}
      propertyPath: DefaultParameters.SpeedAccelerationInAir
      value: 20
      objectReference: {fileID: 0}
    - target: {fileID: 0}
      propertyPath: DefaultBehaviorParameters.JumpHeight
      value: 7
      objectReference: {fileID: 0}
    - target: {fileID: 0}
      propertyPath: DefaultBehaviorParameters.MovementSpeed
      value: 16
      objectReference: {fileID: 0}
    - target: {fileID: 0}
      propertyPath: DefaultBehaviorParameters.WalkSpeed
      value: 12
      objectReference: {fileID: 0}
    - target: {fileID: 0}
      propertyPath: DefaultBehaviorParameters.RunSpeed
      value: 20
      objectReference: {fileID: 0}
    - target: {fileID: 0}
      propertyPath: DefaultBehaviorParameters.JumpMinimumAirTime
      value: 0.2
      objectReference: {fileID: 0}
    - target: {fileID: 0}
      propertyPath: DefaultBehaviorParameters.NumberOfJumps
      value: 1
      objectReference: {fileID: 0}
    - target: {fileID: 0}
      propertyPath: DefaultBehaviorParameters.CrouchSpeed
      value: 3
      objectReference: {fileID: 0}
    - target: {fileID: 0}
      propertyPath: Permissions.DashEnabled
      value: 0
      objectReference: {fileID: 0}
    - target: {fileID: 0}
      propertyPath: Permissions.JetpackEnabled
      value: 0
      objectReference: {fileID: 0}
    - target: {fileID: 0}
      propertyPath: Permissions.CrouchEnabled
      value: 0
      objectReference: {fileID: 0}
    - target: {fileID: 0}
      propertyPath: Permissions.ShootEnabled
      value: 0
      objectReference: {fileID: 0}
    - target: {fileID: 0}
      propertyPath: Permissions.WallJumpEnabled
      value: 0
      objectReference: {fileID: 0}
    - target: {fileID: 0}
      propertyPath: Permissions.WallClingingEnabled
      value: 0
      objectReference: {fileID: 0}
    - target: {fileID: 0}
      propertyPath: Permissions.MeleeAttackEnabled
      value: 0
      objectReference: {fileID: 0}
    - target: {fileID: 0}
      propertyPath: HurtEffect
      value: 
      objectReference: {fileID: 19800000, guid: 65c210b4af5c9d544814a1bb717df020,
        type: 2}
    - target: {fileID: 0}
      propertyPath: TouchTheGroundEffect
      value: 
      objectReference: {fileID: 19800000, guid: 99008e88ac04f1a45997d51439bcf4d1,
        type: 2}
    - target: {fileID: 0}
      propertyPath: OneWayPlatformMask.m_Bits
      value: 2048
      objectReference: {fileID: 0}
    - target: {fileID: 0}
      propertyPath: MovingOneWayPlatformMask.m_Bits
      value: 1048576
      objectReference: {fileID: 0}
    m_RemovedComponents: []
  m_ParentPrefab: {fileID: 0}
  m_RootGameObject: {fileID: 135942}
  m_IsPrefabParent: 1
--- !u!114 &114000010614583896
MonoBehaviour:
  m_ObjectHideFlags: 1
  m_PrefabParentObject: {fileID: 0}
  m_PrefabInternal: {fileID: 100100000}
  m_GameObject: {fileID: 135942}
  m_Enabled: 1
  m_EditorHideFlags: 0
  m_Script: {fileID: 11500000, guid: f1c1a8bab4d234998bcbc559bb58fa11, type: 3}
  m_Name: 
  m_EditorClassIdentifier: 
  AbilityStartSfx: {fileID: 0}
  AbilityInProgressSfx: {fileID: 0}
  AbilityStopSfx: {fileID: 0}
  AbilityPermitted: 1
  JumpHeight: 8
  NumberOfJumps: 2
  JumpRestrictions: 1
  JumpTimeWindow: 0
  JumpIsProportionalToThePressTime: 1
  JumpMinimumAirTime: 0.1
  OneWayPlatformsJumpCollisionOffDuration: 0.3
  MovingPlatformsJumpCollisionOffDuration: 0.05
--- !u!114 &114000011732053140
MonoBehaviour:
  m_ObjectHideFlags: 1
  m_PrefabParentObject: {fileID: 0}
  m_PrefabInternal: {fileID: 100100000}
  m_GameObject: {fileID: 135942}
  m_Enabled: 1
  m_EditorHideFlags: 0
  m_Script: {fileID: 11500000, guid: 4e24d0eb5fa7640038713564930581a9, type: 3}
  m_Name: 
  m_EditorClassIdentifier: 
  AbilityStartSfx: {fileID: 0}
  AbilityInProgressSfx: {fileID: 0}
  AbilityStopSfx: {fileID: 0}
  AbilityPermitted: 1
  WalkSpeed: 12
  TouchTheGroundEffect: {fileID: 0}
  TouchTheGroundSfx: {fileID: 0}
--- !u!114 &114000011769690978
MonoBehaviour:
  m_ObjectHideFlags: 1
  m_PrefabParentObject: {fileID: 0}
  m_PrefabInternal: {fileID: 100100000}
  m_GameObject: {fileID: 135942}
  m_Enabled: 1
  m_EditorHideFlags: 0
  m_Script: {fileID: 11500000, guid: 1fd71e945bfcd4897b3a95607989c7d4, type: 3}
  m_Name: 
  m_EditorClassIdentifier: 
  AbilityStartSfx: {fileID: 0}
  AbilityInProgressSfx: {fileID: 0}
  AbilityStopSfx: {fileID: 0}
  AbilityPermitted: 1
  RunSpeed: 20
--- !u!114 &114000012199984804
MonoBehaviour:
  m_ObjectHideFlags: 1
  m_PrefabParentObject: {fileID: 0}
  m_PrefabInternal: {fileID: 100100000}
  m_GameObject: {fileID: 135942}
  m_Enabled: 1
  m_EditorHideFlags: 0
  m_Script: {fileID: 11500000, guid: e514a2b7cbba3c94fadd9e100df51189, type: 3}
  m_Name: 
  m_EditorClassIdentifier: 
  Top: 1
  Bottom: 2
  Left: 0
  Right: 0
--- !u!114 &114000013163076738
MonoBehaviour:
  m_ObjectHideFlags: 1
  m_PrefabParentObject: {fileID: 0}
  m_PrefabInternal: {fileID: 100100000}
  m_GameObject: {fileID: 135942}
  m_Enabled: 1
  m_EditorHideFlags: 0
  m_Script: {fileID: 11500000, guid: 8b470d1b161b2454590386135b7fd64f, type: 3}
  m_Name: 
  m_EditorClassIdentifier: 
  CharacterType: 0
  PlayerID: Player1
  InitialFacingDirection: 1
  DirectionOnSpawn: 0
  CharacterAnimator: {fileID: 9549478}
  UseDefaultMecanim: 1
  CharacterModel: {fileID: 0}
  FlipOnDirectionChange: 1
  FlipValue: {x: -1, y: 1, z: 1}
  SendStateChangeEvents: 1
  SendStateUpdateEvents: 1
--- !u!114 &114000013343558808
MonoBehaviour:
  m_ObjectHideFlags: 1
  m_PrefabParentObject: {fileID: 0}
  m_PrefabInternal: {fileID: 100100000}
  m_GameObject: {fileID: 135942}
  m_Enabled: 1
  m_EditorHideFlags: 0
  m_Script: {fileID: 11500000, guid: dd6b796cb1f234a509924fea7e79389a, type: 3}
  m_Name: 
  m_EditorClassIdentifier: 
  CurrentHealth: 0
  Invulnerable: 0
  InitialHealth: 10
  MaximumHealth: 10
  DamageEffect: {fileID: 100000, guid: 65c210b4af5c9d544814a1bb717df020, type: 2}
  DamageSfx: {fileID: 8300000, guid: 4709e6d9e03392b4a9d72a8bc19efb69, type: 3}
  FlickerSpriteOnHit: 1
  DeathEffect: {fileID: 0}
  DestroyOnDeath: 1
  CollisionsOffOnDeath: 1
  DeathForce: {x: 0, y: 20}
  PointsWhenDestroyed: 0
  VibrateOnDeath: 0
  RespawnAtInitialLocation: 0
--- !u!114 &114000013854633004
MonoBehaviour:
  m_ObjectHideFlags: 1
  m_PrefabParentObject: {fileID: 0}
  m_PrefabInternal: {fileID: 100100000}
  m_GameObject: {fileID: 135942}
  m_Enabled: 1
  m_EditorHideFlags: 0
  m_Script: {fileID: 11500000, guid: f59e06702d6be45948936bd909420d61, type: 3}
  m_Name: 
  m_EditorClassIdentifier: 
  AbilityStartSfx: {fileID: 0}
  AbilityInProgressSfx: {fileID: 0}
  AbilityStopSfx: {fileID: 0}
  AbilityPermitted: 1
