# MagicaVoxel @ Ephtracy

# group
g dash_1

# material
mtllib dash_1.mtl
usemtl palette

# normals
vn -1 0 0
vn 1 0 0
vn 0 0 1
vn 0 0 -1
vn 0 -1 0
vn 0 1 0

# texcoords
vt 0.919922 0.5
vt 0.923828 0.5
vt 0.927734 0.5
vt 0.947266 0.5

# verts
v -5.5 0 1.5
v -5.5 0 -1.5
v -5.5 1 0.5
v -5.5 1 -0.5
v -5.5 2 1.5
v -5.5 2 0.5
v -5.5 2 -0.5
v -5.5 2 -1.5
v -5.5 4 3.5
v -5.5 4 2.5
v -5.5 5 -2.5
v -5.5 5 -3.5
v -5.5 7 3.5
v -5.5 7 2.5
v -5.5 8 -2.5
v -5.5 8 -3.5
v -5.5 10 1.5
v -5.5 10 -1.5
v -4.5 0 2.5
v -4.5 0 1.5
v -4.5 0 -1.5
v -4.5 0 -2.5
v -4.5 2 2.5
v -4.5 2 1.5
v -4.5 2 -1.5
v -4.5 2 -2.5
v -4.5 3 -2.5
v -4.5 3 -3.5
v -4.5 4 2.5
v -4.5 5 -2.5
v -4.5 5 -3.5
v -4.5 7 3.5
v -4.5 7 2.5
v -4.5 8 -2.5
v -4.5 9 3.5
v -4.5 9 2.5
v -4.5 10 2.5
v -4.5 10 1.5
v -4.5 10 -1.5
v -4.5 10 -2.5
v -3.5 0 3.5
v -3.5 0 2.5
v -3.5 2 2.5
v -3.5 2 -2.5
v -3.5 2 -3.5
v -3.5 3 3.5
v -3.5 3 2.5
v -3.5 3 -2.5
v -3.5 3 -3.5
v -3.5 9 3.5
v -3.5 9 2.5
v -3.5 9 -2.5
v -3.5 9 -3.5
v -3.5 10 3.5
v -3.5 10 2.5
v -3.5 10 -2.5
v -3.5 12 -2.5
v -3.5 12 -3.5
v -2.5 1 -2.5
v -2.5 1 -3.5
v -2.5 2 -2.5
v -2.5 2 -3.5
v -2.5 3 3.5
v -2.5 3 2.5
v -2.5 4 3.5
v -2.5 4 2.5
v -2.5 8 -2.5
v -2.5 8 -3.5
v -2.5 9 -2.5
v -2.5 9 -3.5
v -2.5 10 3.5
v -2.5 10 2.5
v -2.5 11 3.5
v -2.5 11 2.5
v -1.5 0 -2.5
v -1.5 0 -3.5
v -1.5 1 -2.5
v -1.5 1 -3.5
v -1.5 4 3.5
v -1.5 4 2.5
v -1.5 5 3.5
v -1.5 5 2.5
v -1.5 7 -2.5
v -1.5 7 -3.5
v -1.5 8 -2.5
v -1.5 8 -3.5
v -1.5 9 1.5
v -1.5 9 -1.5
v -1.5 10 1.5
v -1.5 10 -1.5
v -1.5 11 3.5
v -1.5 11 2.5
v -1.5 12 3.5
v -1.5 12 2.5
v 0.5 4 -2.5
v 0.5 4 -3.5
v 0.5 5 -2.5
v 0.5 5 -3.5
v 0.5 7 3.5
v 0.5 7 2.5
v 0.5 8 3.5
v 0.5 8 2.5
v 4.5 2 0.5
v 4.5 2 -0.5
v 4.5 3 0.5
v 4.5 3 -0.5
v -4.5 4 3.5
v -4.5 4 2.5
v -4.5 5 3.5
v -4.5 5 2.5
v -4.5 7 -2.5
v -4.5 7 -3.5
v -4.5 8 -2.5
v -4.5 8 -3.5
v -4.5 9 1.5
v -4.5 9 -1.5
v -4.5 10 1.5
v -4.5 10 -1.5
v -2.5 0 3.5
v -2.5 0 2.5
v -2.5 1 3.5
v -2.5 1 2.5
v -2.5 4 -2.5
v -2.5 4 -3.5
v -2.5 5 -2.5
v -2.5 5 -3.5
v -2.5 7 3.5
v -2.5 7 2.5
v -2.5 8 3.5
v -2.5 8 2.5
v -2.5 11 -2.5
v -2.5 11 -3.5
v -2.5 12 -2.5
v -2.5 12 -3.5
v -1.5 1 3.5
v -1.5 1 2.5
v -1.5 2 3.5
v -1.5 2 2.5
v -1.5 3 -2.5
v -1.5 3 -3.5
v -1.5 4 -2.5
v -1.5 4 -3.5
v -1.5 5 2.5
v -1.5 5 1.5
v -1.5 5 -1.5
v -1.5 5 -2.5
v -1.5 6 1.5
v -1.5 6 -1.5
v -1.5 7 2.5
v -1.5 7 1.5
v -1.5 7 -1.5
v -1.5 8 3.5
v -1.5 8 2.5
v -1.5 8 1.5
v -1.5 8 -1.5
v -1.5 9 3.5
v -1.5 9 2.5
v -1.5 9 1.5
v -1.5 9 -1.5
v -1.5 10 2.5
v -1.5 10 1.5
v -1.5 10 -1.5
v -1.5 10 -2.5
v -1.5 10 -3.5
v -1.5 11 -2.5
v -1.5 11 -3.5
v -0.5 0 -2.5
v -0.5 0 -3.5
v -0.5 1 -2.5
v -0.5 2 3.5
v -0.5 2 2.5
v -0.5 3 3.5
v -0.5 3 2.5
v -0.5 3 -2.5
v -0.5 3 -3.5
v -0.5 6 1.5
v -0.5 6 0.5
v -0.5 6 -0.5
v -0.5 6 -1.5
v -0.5 7 1.5
v -0.5 7 0.5
v -0.5 7 -0.5
v -0.5 7 -1.5
v -0.5 8 1.5
v -0.5 8 0.5
v -0.5 8 -0.5
v -0.5 8 -1.5
v -0.5 9 3.5
v -0.5 9 2.5
v -0.5 9 1.5
v -0.5 9 -1.5
v -0.5 9 -2.5
v -0.5 9 -3.5
v -0.5 10 1.5
v -0.5 10 -1.5
v -0.5 10 -2.5
v -0.5 10 -3.5
v -0.5 12 3.5
v -0.5 12 2.5
v 0.5 3 3.5
v 0.5 3 2.5
v 0.5 4 2.5
v 0.5 4 1.5
v 0.5 4 -1.5
v 0.5 4 -2.5
v 0.5 5 3.5
v 0.5 5 2.5
v 0.5 5 1.5
v 0.5 5 0.5
v 0.5 5 -0.5
v 0.5 5 -1.5
v 0.5 5 -2.5
v 0.5 6 1.5
v 0.5 6 0.5
v 0.5 6 -0.5
v 0.5 6 -1.5
v 0.5 7 -2.5
v 0.5 7 -3.5
v 0.5 9 -2.5
v 0.5 9 -3.5
v 1.5 4 -2.5
v 1.5 4 -3.5
v 1.5 5 3.5
v 1.5 5 2.5
v 1.5 7 -2.5
v 1.5 7 -3.5
v 1.5 8 3.5
v 1.5 8 2.5
v 2.5 3 2.5
v 2.5 3 1.5
v 2.5 3 -1.5
v 2.5 3 -2.5
v 2.5 4 2.5
v 2.5 4 1.5
v 2.5 4 0.5
v 2.5 4 -0.5
v 2.5 4 -1.5
v 2.5 4 -2.5
v 2.5 5 1.5
v 2.5 5 0.5
v 2.5 5 -0.5
v 2.5 5 -1.5
v 3.5 2 0.5
v 3.5 2 -0.5
v 3.5 3 0.5
v 3.5 3 -0.5
v 4.5 0 2.5
v 4.5 0 1.5
v 4.5 0 -1.5
v 4.5 0 -2.5
v 4.5 1 2.5
v 4.5 1 1.5
v 4.5 1 -1.5
v 4.5 1 -2.5
v 4.5 2 1.5
v 4.5 2 -1.5
v 4.5 3 2.5
v 4.5 3 1.5
v 4.5 3 0.5
v 4.5 3 -0.5
v 4.5 3 -1.5
v 4.5 3 -2.5
v 4.5 4 1.5
v 4.5 4 0.5
v 4.5 4 -0.5
v 4.5 4 -1.5
v 5.5 0 1.5
v 5.5 0 -1.5
v 5.5 2 1.5
v 5.5 2 -1.5
v 5.5 3 1.5
v 5.5 3 -1.5
v -5.5 4 3.5
v -5.5 7 3.5
v -4.5 4 3.5
v -4.5 5 3.5
v -4.5 7 3.5
v -4.5 9 3.5
v -3.5 0 3.5
v -3.5 3 3.5
v -3.5 9 3.5
v -3.5 10 3.5
v -2.5 0 3.5
v -2.5 1 3.5
v -2.5 3 3.5
v -2.5 4 3.5
v -2.5 7 3.5
v -2.5 8 3.5
v -2.5 10 3.5
v -2.5 11 3.5
v -1.5 1 3.5
v -1.5 2 3.5
v -1.5 4 3.5
v -1.5 5 3.5
v -1.5 8 3.5
v -1.5 9 3.5
v -1.5 11 3.5
v -1.5 12 3.5
v -0.5 2 3.5
v -0.5 3 3.5
v -0.5 9 3.5
v -0.5 12 3.5
v 0.5 3 3.5
v 0.5 5 3.5
v 0.5 7 3.5
v 0.5 8 3.5
v 1.5 5 3.5
v 1.5 8 3.5
v -4.5 0 2.5
v -4.5 2 2.5
v -4.5 4 2.5
v -4.5 5 2.5
v -4.5 9 2.5
v -4.5 10 2.5
v -3.5 0 2.5
v -3.5 2 2.5
v -3.5 3 2.5
v -3.5 9 2.5
v -3.5 10 2.5
v -2.5 0 2.5
v -2.5 1 2.5
v -2.5 3 2.5
v -2.5 4 2.5
v -2.5 7 2.5
v -2.5 8 2.5
v -1.5 1 2.5
v -1.5 2 2.5
v -1.5 4 2.5
v -1.5 5 2.5
v -1.5 7 2.5
v -1.5 8 2.5
v -0.5 2 2.5
v -0.5 3 2.5
v 0.5 3 2.5
v 0.5 4 2.5
v 2.5 3 2.5
v 2.5 4 2.5
v 4.5 0 2.5
v 4.5 1 2.5
v 4.5 3 2.5
v -5.5 0 1.5
v -5.5 2 1.5
v -5.5 10 1.5
v -4.5 0 1.5
v -4.5 2 1.5
v -4.5 10 1.5
v -1.5 5 1.5
v -1.5 6 1.5
v -1.5 7 1.5
v -1.5 8 1.5
v -1.5 9 1.5
v -1.5 10 1.5
v -0.5 6 1.5
v -0.5 7 1.5
v -0.5 8 1.5
v -0.5 9 1.5
v -0.5 10 1.5
v 0.5 4 1.5
v 0.5 5 1.5
v 0.5 6 1.5
v 1.5 4 1.5
v 1.5 5 1.5
v 2.5 3 1.5
v 2.5 4 1.5
v 2.5 5 1.5
v 3.5 3 1.5
v 3.5 4 1.5
v 4.5 0 1.5
v 4.5 1 1.5
v 4.5 2 1.5
v 4.5 3 1.5
v 4.5 4 1.5
v 5.5 0 1.5
v 5.5 2 1.5
v 5.5 3 1.5
v 3.5 2 -0.5
v 3.5 3 -0.5
v 4.5 2 -0.5
v 4.5 3 -0.5
v -4.5 9 -1.5
v -4.5 10 -1.5
v -1.5 9 -1.5
v -1.5 10 -1.5
v -5.5 5 -2.5
v -5.5 8 -2.5
v -4.5 5 -2.5
v -4.5 8 -2.5
v -3.5 10 -2.5
v -3.5 12 -2.5
v -2.5 11 -2.5
v -2.5 12 -2.5
v -1.5 5 -2.5
v -1.5 10 -2.5
v -1.5 11 -2.5
v -0.5 9 -2.5
v -0.5 10 -2.5
v 0.5 4 -2.5
v 0.5 5 -2.5
v 0.5 7 -2.5
v 0.5 9 -2.5
v 1.5 4 -2.5
v 1.5 7 -2.5
v -5.5 4 2.5
v -5.5 7 2.5
v -4.5 4 2.5
v -4.5 7 2.5
v -2.5 10 2.5
v -2.5 11 2.5
v -1.5 5 2.5
v -1.5 7 2.5
v -1.5 9 2.5
v -1.5 10 2.5
v -1.5 11 2.5
v -1.5 12 2.5
v -0.5 9 2.5
v -0.5 12 2.5
v 0.5 5 2.5
v 0.5 7 2.5
v 0.5 8 2.5
v 1.5 5 2.5
v 1.5 8 2.5
v -4.5 9 1.5
v -4.5 10 1.5
v -1.5 9 1.5
v -1.5 10 1.5
v 3.5 2 0.5
v 3.5 3 0.5
v 4.5 2 0.5
v 4.5 3 0.5
v -5.5 0 -1.5
v -5.5 2 -1.5
v -5.5 10 -1.5
v -4.5 0 -1.5
v -4.5 2 -1.5
v -4.5 10 -1.5
v -1.5 5 -1.5
v -1.5 6 -1.5
v -1.5 7 -1.5
v -1.5 8 -1.5
v -1.5 9 -1.5
v -1.5 10 -1.5
v -0.5 6 -1.5
v -0.5 7 -1.5
v -0.5 8 -1.5
v -0.5 9 -1.5
v -0.5 10 -1.5
v 0.5 4 -1.5
v 0.5 5 -1.5
v 0.5 6 -1.5
v 1.5 4 -1.5
v 1.5 5 -1.5
v 2.5 3 -1.5
v 2.5 4 -1.5
v 2.5 5 -1.5
v 3.5 3 -1.5
v 3.5 4 -1.5
v 4.5 0 -1.5
v 4.5 1 -1.5
v 4.5 2 -1.5
v 4.5 3 -1.5
v 4.5 4 -1.5
v 5.5 0 -1.5
v 5.5 2 -1.5
v 5.5 3 -1.5
v -4.5 0 -2.5
v -4.5 2 -2.5
v -4.5 3 -2.5
v -4.5 7 -2.5
v -4.5 8 -2.5
v -4.5 10 -2.5
v -3.5 2 -2.5
v -3.5 3 -2.5
v -3.5 9 -2.5
v -3.5 10 -2.5
v -2.5 1 -2.5
v -2.5 2 -2.5
v -2.5 4 -2.5
v -2.5 5 -2.5
v -2.5 8 -2.5
v -2.5 9 -2.5
v -1.5 0 -2.5
v -1.5 1 -2.5
v -1.5 3 -2.5
v -1.5 4 -2.5
v -1.5 7 -2.5
v -1.5 8 -2.5
v -0.5 0 -2.5
v -0.5 1 -2.5
v -0.5 3 -2.5
v 0.5 4 -2.5
v 0.5 5 -2.5
v 1.5 4 -2.5
v 2.5 3 -2.5
v 2.5 4 -2.5
v 4.5 0 -2.5
v 4.5 1 -2.5
v 4.5 3 -2.5
v -5.5 5 -3.5
v -5.5 8 -3.5
v -4.5 3 -3.5
v -4.5 5 -3.5
v -4.5 7 -3.5
v -4.5 8 -3.5
v -3.5 2 -3.5
v -3.5 3 -3.5
v -3.5 9 -3.5
v -3.5 12 -3.5
v -2.5 1 -3.5
v -2.5 2 -3.5
v -2.5 4 -3.5
v -2.5 5 -3.5
v -2.5 8 -3.5
v -2.5 9 -3.5
v -2.5 11 -3.5
v -2.5 12 -3.5
v -1.5 0 -3.5
v -1.5 1 -3.5
v -1.5 3 -3.5
v -1.5 4 -3.5
v -1.5 7 -3.5
v -1.5 8 -3.5
v -1.5 10 -3.5
v -1.5 11 -3.5
v -0.5 0 -3.5
v -0.5 3 -3.5
v -0.5 9 -3.5
v -0.5 10 -3.5
v 0.5 4 -3.5
v 0.5 5 -3.5
v 0.5 7 -3.5
v 0.5 9 -3.5
v 1.5 4 -3.5
v 1.5 7 -3.5
v -3.5 0 3.5
v -2.5 0 3.5
v -4.5 0 2.5
v -3.5 0 2.5
v -2.5 0 2.5
v 4.5 0 2.5
v -5.5 0 1.5
v -4.5 0 1.5
v 4.5 0 1.5
v 5.5 0 1.5
v -5.5 0 -1.5
v -4.5 0 -1.5
v 4.5 0 -1.5
v 5.5 0 -1.5
v -4.5 0 -2.5
v -1.5 0 -2.5
v -0.5 0 -2.5
v 4.5 0 -2.5
v -1.5 0 -3.5
v -0.5 0 -3.5
v -2.5 1 3.5
v -1.5 1 3.5
v -2.5 1 2.5
v -1.5 1 2.5
v -2.5 1 -2.5
v -1.5 1 -2.5
v -2.5 1 -3.5
v -1.5 1 -3.5
v -1.5 2 3.5
v -0.5 2 3.5
v -1.5 2 2.5
v -0.5 2 2.5
v -3.5 2 -2.5
v -2.5 2 -2.5
v -3.5 2 -3.5
v -2.5 2 -3.5
v -0.5 3 3.5
v 0.5 3 3.5
v -0.5 3 2.5
v 0.5 3 2.5
v 3.5 3 0.5
v 4.5 3 0.5
v 3.5 3 -0.5
v 4.5 3 -0.5
v -4.5 3 -2.5
v -3.5 3 -2.5
v -4.5 3 -3.5
v -3.5 3 -3.5
v -5.5 4 3.5
v -4.5 4 3.5
v -5.5 4 2.5
v -4.5 4 2.5
v 0.5 4 -2.5
v 1.5 4 -2.5
v 0.5 4 -3.5
v 1.5 4 -3.5
v -4.5 5 3.5
v -1.5 5 3.5
v 0.5 5 3.5
v 1.5 5 3.5
v -4.5 5 2.5
v -1.5 5 2.5
v 0.5 5 2.5
v 1.5 5 2.5
v -5.5 5 -2.5
v -4.5 5 -2.5
v -2.5 5 -2.5
v 0.5 5 -2.5
v -5.5 5 -3.5
v -4.5 5 -3.5
v -2.5 5 -3.5
v 0.5 5 -3.5
v -2.5 8 3.5
v -1.5 8 3.5
v -2.5 8 2.5
v -1.5 8 2.5
v -2.5 8 -2.5
v -1.5 8 -2.5
v -2.5 8 -3.5
v -1.5 8 -3.5
v -1.5 9 3.5
v -0.5 9 3.5
v -1.5 9 2.5
v -0.5 9 2.5
v -3.5 9 -2.5
v -2.5 9 -2.5
v -3.5 9 -3.5
v -2.5 9 -3.5
v 3.5 2 0.5
v 4.5 2 0.5
v 3.5 2 -0.5
v 4.5 2 -0.5
v -3.5 3 3.5
v -2.5 3 3.5
v -3.5 3 2.5
v -2.5 3 2.5
v 2.5 3 2.5
v 4.5 3 2.5
v 2.5 3 1.5
v 3.5 3 1.5
v 4.5 3 1.5
v 5.5 3 1.5
v 4.5 3 0.5
v 4.5 3 -0.5
v 2.5 3 -1.5
v 3.5 3 -1.5
v 4.5 3 -1.5
v 5.5 3 -1.5
v -1.5 3 -2.5
v -0.5 3 -2.5
v 2.5 3 -2.5
v 4.5 3 -2.5
v -1.5 3 -3.5
v -0.5 3 -3.5
v -2.5 4 3.5
v -1.5 4 3.5
v -2.5 4 2.5
v -1.5 4 2.5
v 0.5 4 2.5
v 2.5 4 2.5
v 0.5 4 1.5
v 1.5 4 1.5
v 2.5 4 1.5
v 3.5 4 1.5
v 4.5 4 1.5
v 2.5 4 0.5
v 3.5 4 0.5
v 4.5 4 0.5
v 2.5 4 -0.5
v 3.5 4 -0.5
v 4.5 4 -0.5
v 0.5 4 -1.5
v 1.5 4 -1.5
v 2.5 4 -1.5
v 3.5 4 -1.5
v 4.5 4 -1.5
v -2.5 4 -2.5
v -1.5 4 -2.5
v 0.5 4 -2.5
v 1.5 4 -2.5
v 2.5 4 -2.5
v -2.5 4 -3.5
v -1.5 4 -3.5
v -1.5 5 2.5
v 0.5 5 2.5
v -1.5 5 1.5
v 0.5 5 1.5
v 1.5 5 1.5
v 2.5 5 1.5
v 0.5 5 0.5
v 1.5 5 0.5
v 2.5 5 0.5
v 0.5 5 -0.5
v 1.5 5 -0.5
v 2.5 5 -0.5
v -1.5 5 -1.5
v 0.5 5 -1.5
v 1.5 5 -1.5
v 2.5 5 -1.5
v -1.5 5 -2.5
v 0.5 5 -2.5
v -0.5 6 1.5
v 0.5 6 1.5
v -0.5 6 0.5
v 0.5 6 0.5
v -0.5 6 -0.5
v 0.5 6 -0.5
v -0.5 6 -1.5
v 0.5 6 -1.5
v -5.5 7 3.5
v -4.5 7 3.5
v -2.5 7 3.5
v 0.5 7 3.5
v -5.5 7 2.5
v -4.5 7 2.5
v -2.5 7 2.5
v -1.5 7 2.5
v 0.5 7 2.5
v -4.5 7 -2.5
v -1.5 7 -2.5
v 0.5 7 -2.5
v 1.5 7 -2.5
v -4.5 7 -3.5
v -1.5 7 -3.5
v 0.5 7 -3.5
v 1.5 7 -3.5
v 0.5 8 3.5
v 1.5 8 3.5
v 0.5 8 2.5
v 1.5 8 2.5
v -5.5 8 -2.5
v -4.5 8 -2.5
v -5.5 8 -3.5
v -4.5 8 -3.5
v -4.5 9 3.5
v -3.5 9 3.5
v -4.5 9 2.5
v -3.5 9 2.5
v -4.5 9 1.5
v -1.5 9 1.5
v -4.5 9 -1.5
v -1.5 9 -1.5
v -0.5 9 -2.5
v 0.5 9 -2.5
v -0.5 9 -3.5
v 0.5 9 -3.5
v -3.5 10 3.5
v -2.5 10 3.5
v -4.5 10 2.5
v -3.5 10 2.5
v -2.5 10 2.5
v -1.5 10 2.5
v -5.5 10 1.5
v -4.5 10 1.5
v -1.5 10 1.5
v -0.5 10 1.5
v -5.5 10 -1.5
v -4.5 10 -1.5
v -1.5 10 -1.5
v -0.5 10 -1.5
v -4.5 10 -2.5
v -3.5 10 -2.5
v -1.5 10 -2.5
v -0.5 10 -2.5
v -1.5 10 -3.5
v -0.5 10 -3.5
v -2.5 11 3.5
v -1.5 11 3.5
v -2.5 11 2.5
v -1.5 11 2.5
v -2.5 11 -2.5
v -1.5 11 -2.5
v -2.5 11 -3.5
v -1.5 11 -3.5
v -1.5 12 3.5
v -0.5 12 3.5
v -1.5 12 2.5
v -0.5 12 2.5
v -3.5 12 -2.5
v -2.5 12 -2.5
v -3.5 12 -3.5
v -2.5 12 -3.5

# faces
f 3/1/1 2/1/1 1/1/1
f 4/1/1 2/1/1 3/1/1
f 5/1/1 3/1/1 1/1/1
f 6/4/1 4/4/1 3/4/1
f 6/1/1 3/1/1 5/1/1
f 7/1/1 2/1/1 4/1/1
f 7/4/1 4/4/1 6/4/1
f 8/1/1 2/1/1 7/1/1
f 13/3/1 10/3/1 9/3/1
f 14/3/1 10/3/1 13/3/1
f 15/3/1 12/3/1 11/3/1
f 16/3/1 12/3/1 15/3/1
f 17/4/1 6/4/1 5/4/1
f 17/4/1 7/4/1 6/4/1
f 17/4/1 8/4/1 7/4/1
f 18/4/1 8/4/1 17/4/1
f 23/1/1 20/1/1 19/1/1
f 24/1/1 20/1/1 23/1/1
f 25/1/1 22/1/1 21/1/1
f 26/1/1 22/1/1 25/1/1
f 27/4/1 26/4/1 25/4/1
f 29/4/1 24/4/1 23/4/1
f 30/3/1 28/3/1 27/3/1
f 30/4/1 27/4/1 25/4/1
f 31/3/1 28/3/1 30/3/1
f 33/4/1 24/4/1 29/4/1
f 34/4/1 30/4/1 25/4/1
f 35/3/1 33/3/1 32/3/1
f 36/4/1 24/4/1 33/4/1
f 36/3/1 33/3/1 35/3/1
f 37/4/1 24/4/1 36/4/1
f 38/4/1 24/4/1 37/4/1
f 39/4/1 34/4/1 25/4/1
f 40/4/1 34/4/1 39/4/1
f 43/3/1 42/3/1 41/3/1
f 46/3/1 43/3/1 41/3/1
f 47/3/1 43/3/1 46/3/1
f 48/3/1 45/3/1 44/3/1
f 49/3/1 45/3/1 48/3/1
f 54/3/1 51/3/1 50/3/1
f 55/3/1 51/3/1 54/3/1
f 56/3/1 53/3/1 52/3/1
f 57/3/1 53/3/1 56/3/1
f 58/3/1 53/3/1 57/3/1
f 61/3/1 60/3/1 59/3/1
f 62/3/1 60/3/1 61/3/1
f 65/3/1 64/3/1 63/3/1
f 66/3/1 64/3/1 65/3/1
f 69/3/1 68/3/1 67/3/1
f 70/3/1 68/3/1 69/3/1
f 73/3/1 72/3/1 71/3/1
f 74/3/1 72/3/1 73/3/1
f 77/3/1 76/3/1 75/3/1
f 78/3/1 76/3/1 77/3/1
f 81/3/1 80/3/1 79/3/1
f 82/3/1 80/3/1 81/3/1
f 85/3/1 84/3/1 83/3/1
f 86/3/1 84/3/1 85/3/1
f 89/4/1 88/4/1 87/4/1
f 90/4/1 88/4/1 89/4/1
f 93/3/1 92/3/1 91/3/1
f 94/3/1 92/3/1 93/3/1
f 97/3/1 96/3/1 95/3/1
f 98/3/1 96/3/1 97/3/1
f 101/3/1 100/3/1 99/3/1
f 102/3/1 100/3/1 101/3/1
f 105/4/1 104/4/1 103/4/1
f 106/4/1 104/4/1 105/4/1
f 107/3/2 108/3/2 109/3/2
f 109/3/2 108/3/2 110/3/2
f 111/3/2 112/3/2 113/3/2
f 113/3/2 112/3/2 114/3/2
f 115/4/2 116/4/2 117/4/2
f 117/4/2 116/4/2 118/4/2
f 119/3/2 120/3/2 121/3/2
f 121/3/2 120/3/2 122/3/2
f 123/3/2 124/3/2 125/3/2
f 125/3/2 124/3/2 126/3/2
f 127/3/2 128/3/2 129/3/2
f 129/3/2 128/3/2 130/3/2
f 131/3/2 132/3/2 133/3/2
f 133/3/2 132/3/2 134/3/2
f 135/3/2 136/3/2 137/3/2
f 137/3/2 136/3/2 138/3/2
f 139/3/2 140/3/2 141/3/2
f 141/3/2 140/3/2 142/3/2
f 143/4/2 144/4/2 147/4/2
f 145/4/2 146/4/2 148/4/2
f 143/4/2 147/4/2 149/4/2
f 149/4/2 147/4/2 150/4/2
f 148/4/2 146/4/2 151/4/2
f 149/4/2 150/4/2 153/4/2
f 153/4/2 150/4/2 154/4/2
f 151/4/2 146/4/2 155/4/2
f 152/3/2 153/3/2 156/3/2
f 153/4/2 154/4/2 157/4/2
f 156/3/2 153/3/2 157/3/2
f 157/4/2 154/4/2 158/4/2
f 155/4/2 146/4/2 159/4/2
f 157/4/2 158/4/2 160/4/2
f 160/4/2 158/4/2 161/4/2
f 159/4/2 146/4/2 162/4/2
f 162/4/2 146/4/2 163/4/2
f 163/3/2 164/3/2 165/3/2
f 165/3/2 164/3/2 166/3/2
f 167/3/2 168/3/2 169/3/2
f 170/3/2 171/3/2 172/3/2
f 172/3/2 171/3/2 173/3/2
f 169/3/2 168/3/2 174/3/2
f 174/3/2 168/3/2 175/3/2
f 176/2/2 177/2/2 180/2/2
f 178/2/2 179/2/2 180/2/2
f 177/2/2 178/2/2 180/2/2
f 180/2/2 179/2/2 181/2/2
f 181/2/2 179/2/2 182/2/2
f 182/2/2 179/2/2 183/2/2
f 180/4/2 181/4/2 184/4/2
f 181/2/2 182/2/2 185/2/2
f 184/4/2 181/4/2 185/4/2
f 182/4/2 183/4/2 186/4/2
f 185/2/2 182/2/2 186/2/2
f 186/4/2 183/4/2 187/4/2
f 184/2/2 185/2/2 190/2/2
f 185/2/2 186/2/2 190/2/2
f 186/2/2 187/2/2 190/2/2
f 190/2/2 187/2/2 191/2/2
f 190/4/2 191/4/2 194/4/2
f 194/4/2 191/4/2 195/4/2
f 192/3/2 193/3/2 196/3/2
f 196/3/2 193/3/2 197/3/2
f 188/3/2 189/3/2 198/3/2
f 198/3/2 189/3/2 199/3/2
f 200/3/2 201/3/2 202/3/2
f 200/3/2 202/3/2 206/3/2
f 202/4/2 203/4/2 207/4/2
f 206/3/2 202/3/2 207/3/2
f 207/4/2 203/4/2 208/4/2
f 204/4/2 205/4/2 211/4/2
f 211/4/2 205/4/2 212/4/2
f 208/4/2 209/4/2 213/4/2
f 209/2/2 210/2/2 214/2/2
f 213/4/2 209/4/2 214/4/2
f 210/4/2 211/4/2 215/4/2
f 214/2/2 210/2/2 215/2/2
f 215/4/2 211/4/2 216/4/2
f 217/3/2 218/3/2 219/3/2
f 219/3/2 218/3/2 220/3/2
f 221/3/2 222/3/2 225/3/2
f 225/3/2 222/3/2 226/3/2
f 223/3/2 224/3/2 227/3/2
f 227/3/2 224/3/2 228/3/2
f 229/4/2 230/4/2 233/4/2
f 233/4/2 230/4/2 234/4/2
f 231/4/2 232/4/2 237/4/2
f 237/4/2 232/4/2 238/4/2
f 234/4/2 235/4/2 239/4/2
f 235/2/2 236/2/2 240/2/2
f 239/4/2 235/4/2 240/4/2
f 236/4/2 237/4/2 241/4/2
f 240/2/2 236/2/2 241/2/2
f 241/4/2 237/4/2 242/4/2
f 243/4/2 244/4/2 245/4/2
f 245/4/2 244/4/2 246/4/2
f 247/1/2 248/1/2 251/1/2
f 251/1/2 248/1/2 252/1/2
f 249/1/2 250/1/2 253/1/2
f 253/1/2 250/1/2 254/1/2
f 251/4/2 252/4/2 255/4/2
f 253/4/2 254/4/2 256/4/2
f 251/4/2 255/4/2 257/4/2
f 257/4/2 255/4/2 258/4/2
f 256/4/2 254/4/2 261/4/2
f 261/4/2 254/4/2 262/4/2
f 258/4/2 259/4/2 263/4/2
f 259/2/2 260/2/2 264/2/2
f 263/4/2 259/4/2 264/4/2
f 260/4/2 261/4/2 265/4/2
f 264/2/2 260/2/2 265/2/2
f 265/4/2 261/4/2 266/4/2
f 267/1/2 268/1/2 269/1/2
f 269/1/2 268/1/2 270/1/2
f 269/4/2 270/4/2 271/4/2
f 271/4/2 270/4/2 272/4/2
f 275/3/3 274/3/3 273/3/3
f 276/3/3 274/3/3 275/3/3
f 277/3/3 274/3/3 276/3/3
f 281/3/3 278/3/3 277/3/3
f 281/3/3 277/3/3 276/3/3
f 283/3/3 280/3/3 279/3/3
f 284/3/3 280/3/3 283/3/3
f 285/3/3 280/3/3 284/3/3
f 287/3/3 282/3/3 281/3/3
f 287/3/3 281/3/3 276/3/3
f 288/3/3 282/3/3 287/3/3
f 289/3/3 282/3/3 288/3/3
f 291/3/3 286/3/3 285/3/3
f 291/3/3 285/3/3 284/3/3
f 292/3/3 286/3/3 291/3/3
f 293/3/3 286/3/3 292/3/3
f 294/3/3 287/3/3 276/3/3
f 295/3/3 290/3/3 289/3/3
f 295/3/3 289/3/3 288/3/3
f 296/3/3 290/3/3 295/3/3
f 297/3/3 290/3/3 296/3/3
f 299/3/3 294/3/3 293/3/3
f 299/3/3 293/3/3 292/3/3
f 300/3/3 294/3/3 299/3/3
f 301/3/3 298/3/3 297/3/3
f 301/3/3 297/3/3 296/3/3
f 302/3/3 298/3/3 301/3/3
f 303/3/3 294/3/3 300/3/3
f 304/3/3 287/3/3 294/3/3
f 304/3/3 294/3/3 303/3/3
f 305/3/3 287/3/3 304/3/3
f 307/3/3 306/3/3 305/3/3
f 307/3/3 305/3/3 304/3/3
f 308/3/3 306/3/3 307/3/3
f 315/1/3 310/1/3 309/1/3
f 316/4/3 311/4/3 310/4/3
f 316/1/3 310/1/3 315/1/3
f 316/4/3 312/4/3 311/4/3
f 317/4/3 312/4/3 316/4/3
f 318/4/3 314/4/3 313/4/3
f 319/4/3 314/4/3 318/4/3
f 322/4/3 312/4/3 317/4/3
f 323/4/3 312/4/3 322/4/3
f 326/1/3 321/1/3 320/1/3
f 328/4/3 312/4/3 323/4/3
f 329/4/3 312/4/3 328/4/3
f 330/4/3 325/4/3 324/4/3
f 331/4/3 325/4/3 330/4/3
f 332/4/3 327/4/3 326/4/3
f 334/4/3 333/4/3 332/4/3
f 336/4/3 334/4/3 332/4/3
f 336/4/3 335/4/3 334/4/3
f 337/4/3 335/4/3 336/4/3
f 338/1/3 326/1/3 320/1/3
f 339/4/3 332/4/3 326/4/3
f 339/1/3 326/1/3 338/1/3
f 339/4/3 336/4/3 332/4/3
f 340/4/3 336/4/3 339/4/3
f 344/1/3 342/1/3 341/1/3
f 345/4/3 343/4/3 342/4/3
f 345/1/3 342/1/3 344/1/3
f 346/4/3 343/4/3 345/4/3
f 353/4/3 348/4/3 347/4/3
f 353/2/3 349/2/3 348/2/3
f 354/4/3 350/4/3 349/4/3
f 354/2/3 349/2/3 353/2/3
f 355/2/3 351/2/3 350/2/3
f 355/4/3 350/4/3 354/4/3
f 356/4/3 352/4/3 351/4/3
f 356/2/3 351/2/3 355/2/3
f 357/4/3 352/4/3 356/4/3
f 359/4/3 353/4/3 347/4/3
f 360/4/3 353/4/3 359/4/3
f 361/2/3 359/2/3 358/2/3
f 362/2/3 359/2/3 361/2/3
f 364/4/3 362/4/3 361/4/3
f 365/4/3 362/4/3 364/4/3
f 366/2/3 364/2/3 363/2/3
f 367/2/3 364/2/3 366/2/3
f 371/4/3 367/4/3 366/4/3
f 372/4/3 367/4/3 371/4/3
f 373/1/3 370/1/3 369/1/3
f 373/1/3 369/1/3 368/1/3
f 374/4/3 371/4/3 370/4/3
f 374/1/3 370/1/3 373/1/3
f 375/4/3 371/4/3 374/4/3
f 378/4/3 377/4/3 376/4/3
f 379/4/3 377/4/3 378/4/3
f 382/4/3 381/4/3 380/4/3
f 383/4/3 381/4/3 382/4/3
f 386/3/3 385/3/3 384/3/3
f 387/3/3 385/3/3 386/3/3
f 390/3/3 389/3/3 388/3/3
f 391/3/3 389/3/3 390/3/3
f 393/3/3 390/3/3 388/3/3
f 394/3/3 390/3/3 393/3/3
f 395/3/3 393/3/3 392/3/3
f 396/3/3 393/3/3 395/3/3
f 398/3/3 395/3/3 392/3/3
f 399/3/3 395/3/3 398/3/3
f 400/3/3 395/3/3 399/3/3
f 401/3/3 398/3/3 397/3/3
f 401/3/3 399/3/3 398/3/3
f 402/3/3 399/3/3 401/3/3
f 403/3/4 404/3/4 405/3/4
f 405/3/4 404/3/4 406/3/4
f 407/3/4 408/3/4 412/3/4
f 412/3/4 408/3/4 413/3/4
f 411/3/4 412/3/4 415/3/4
f 413/3/4 414/3/4 415/3/4
f 412/3/4 413/3/4 415/3/4
f 415/3/4 414/3/4 416/3/4
f 409/3/4 410/3/4 417/3/4
f 417/3/4 410/3/4 418/3/4
f 417/3/4 418/3/4 420/3/4
f 418/3/4 419/3/4 420/3/4
f 420/3/4 419/3/4 421/3/4
f 422/4/4 423/4/4 424/4/4
f 424/4/4 423/4/4 425/4/4
f 426/4/4 427/4/4 428/4/4
f 428/4/4 427/4/4 429/4/4
f 430/1/4 431/1/4 433/1/4
f 431/4/4 432/4/4 434/4/4
f 433/1/4 431/1/4 434/1/4
f 434/4/4 432/4/4 435/4/4
f 436/4/4 437/4/4 442/4/4
f 437/2/4 438/2/4 442/2/4
f 438/4/4 439/4/4 443/4/4
f 442/2/4 438/2/4 443/2/4
f 439/2/4 440/2/4 444/2/4
f 443/4/4 439/4/4 444/4/4
f 440/4/4 441/4/4 445/4/4
f 444/2/4 440/2/4 445/2/4
f 445/4/4 441/4/4 446/4/4
f 436/4/4 442/4/4 448/4/4
f 448/4/4 442/4/4 449/4/4
f 447/2/4 448/2/4 450/2/4
f 450/2/4 448/2/4 451/2/4
f 450/4/4 451/4/4 453/4/4
f 453/4/4 451/4/4 454/4/4
f 452/2/4 453/2/4 455/2/4
f 455/2/4 453/2/4 456/2/4
f 455/4/4 456/4/4 460/4/4
f 460/4/4 456/4/4 461/4/4
f 458/1/4 459/1/4 462/1/4
f 457/1/4 458/1/4 462/1/4
f 459/4/4 460/4/4 463/4/4
f 462/1/4 459/1/4 463/1/4
f 463/4/4 460/4/4 464/4/4
f 465/1/4 466/1/4 471/1/4
f 466/4/4 467/4/4 471/4/4
f 471/4/4 467/4/4 472/4/4
f 469/4/4 470/4/4 473/4/4
f 468/4/4 469/4/4 473/4/4
f 473/4/4 470/4/4 474/4/4
f 465/1/4 471/1/4 475/1/4
f 475/1/4 471/1/4 476/1/4
f 468/4/4 473/4/4 479/4/4
f 479/4/4 473/4/4 480/4/4
f 465/1/4 475/1/4 481/1/4
f 481/1/4 475/1/4 482/1/4
f 477/4/4 478/4/4 484/4/4
f 468/4/4 479/4/4 485/4/4
f 485/4/4 479/4/4 486/4/4
f 483/4/4 484/4/4 489/4/4
f 484/4/4 478/4/4 490/4/4
f 488/4/4 489/4/4 490/4/4
f 489/4/4 484/4/4 490/4/4
f 490/4/4 478/4/4 491/4/4
f 488/4/4 490/4/4 492/4/4
f 488/4/4 492/4/4 493/4/4
f 493/4/4 492/4/4 494/4/4
f 487/1/4 488/1/4 495/1/4
f 488/4/4 493/4/4 496/4/4
f 495/1/4 488/1/4 496/1/4
f 496/4/4 493/4/4 497/4/4
f 498/3/4 499/3/4 501/3/4
f 501/3/4 499/3/4 502/3/4
f 502/3/4 499/3/4 503/3/4
f 500/3/4 501/3/4 505/3/4
f 501/3/4 502/3/4 505/3/4
f 504/3/4 505/3/4 509/3/4
f 505/3/4 502/3/4 510/3/4
f 509/3/4 505/3/4 510/3/4
f 510/3/4 502/3/4 511/3/4
f 506/3/4 507/3/4 513/3/4
f 513/3/4 507/3/4 514/3/4
f 514/3/4 507/3/4 515/3/4
f 508/3/4 509/3/4 517/3/4
f 509/3/4 510/3/4 517/3/4
f 517/3/4 510/3/4 518/3/4
f 518/3/4 510/3/4 519/3/4
f 511/3/4 502/3/4 520/3/4
f 513/3/4 514/3/4 521/3/4
f 512/3/4 513/3/4 521/3/4
f 521/3/4 514/3/4 522/3/4
f 522/3/4 514/3/4 523/3/4
f 517/3/4 518/3/4 524/3/4
f 516/3/4 517/3/4 524/3/4
f 524/3/4 518/3/4 525/3/4
f 521/3/4 522/3/4 526/3/4
f 520/3/4 521/3/4 526/3/4
f 526/3/4 522/3/4 527/3/4
f 511/3/4 520/3/4 529/3/4
f 520/3/4 526/3/4 529/3/4
f 529/3/4 526/3/4 530/3/4
f 530/3/4 526/3/4 531/3/4
f 528/3/4 529/3/4 532/3/4
f 529/3/4 530/3/4 532/3/4
f 532/3/4 530/3/4 533/3/4
f 537/3/5 535/3/5 534/3/5
f 538/3/5 535/3/5 537/3/5
f 541/1/5 537/1/5 536/1/5
f 541/1/5 539/1/5 538/1/5
f 541/1/5 538/1/5 537/1/5
f 542/1/5 539/1/5 541/1/5
f 544/1/5 541/1/5 540/1/5
f 544/1/5 543/1/5 542/1/5
f 544/1/5 542/1/5 541/1/5
f 545/1/5 543/1/5 544/1/5
f 546/1/5 543/1/5 545/1/5
f 547/1/5 543/1/5 546/1/5
f 548/1/5 546/1/5 545/1/5
f 549/1/5 546/1/5 548/1/5
f 550/1/5 546/1/5 549/1/5
f 551/1/5 546/1/5 550/1/5
f 552/3/5 550/3/5 549/3/5
f 553/3/5 550/3/5 552/3/5
f 556/3/5 555/3/5 554/3/5
f 557/3/5 555/3/5 556/3/5
f 560/3/5 559/3/5 558/3/5
f 561/3/5 559/3/5 560/3/5
f 564/3/5 563/3/5 562/3/5
f 565/3/5 563/3/5 564/3/5
f 568/3/5 567/3/5 566/3/5
f 569/3/5 567/3/5 568/3/5
f 572/3/5 571/3/5 570/3/5
f 573/3/5 571/3/5 572/3/5
f 576/2/5 575/2/5 574/2/5
f 577/2/5 575/2/5 576/2/5
f 580/3/5 579/3/5 578/3/5
f 581/3/5 579/3/5 580/3/5
f 584/3/5 583/3/5 582/3/5
f 585/3/5 583/3/5 584/3/5
f 588/3/5 587/3/5 586/3/5
f 589/3/5 587/3/5 588/3/5
f 594/3/5 591/3/5 590/3/5
f 595/3/5 591/3/5 594/3/5
f 596/3/5 593/3/5 592/3/5
f 597/3/5 593/3/5 596/3/5
f 602/3/5 599/3/5 598/3/5
f 603/3/5 599/3/5 602/3/5
f 604/3/5 601/3/5 600/3/5
f 605/3/5 601/3/5 604/3/5
f 608/3/5 607/3/5 606/3/5
f 609/3/5 607/3/5 608/3/5
f 612/3/5 611/3/5 610/3/5
f 613/3/5 611/3/5 612/3/5
f 616/3/5 615/3/5 614/3/5
f 617/3/5 615/3/5 616/3/5
f 620/3/5 619/3/5 618/3/5
f 621/3/5 619/3/5 620/3/5
f 622/4/6 623/4/6 624/4/6
f 624/4/6 623/4/6 625/4/6
f 626/3/6 627/3/6 628/3/6
f 628/3/6 627/3/6 629/3/6
f 630/4/6 631/4/6 632/4/6
f 632/4/6 631/4/6 633/4/6
f 633/4/6 631/4/6 634/4/6
f 634/4/6 635/4/6 636/4/6
f 636/4/6 635/4/6 637/4/6
f 637/4/6 635/4/6 640/4/6
f 640/4/6 635/4/6 641/4/6
f 638/4/6 639/4/6 644/4/6
f 639/4/6 640/4/6 644/4/6
f 644/4/6 640/4/6 645/4/6
f 642/3/6 643/3/6 646/3/6
f 646/3/6 643/3/6 647/3/6
f 648/3/6 649/3/6 650/3/6
f 650/3/6 649/3/6 651/3/6
f 652/4/6 653/4/6 654/4/6
f 654/4/6 653/4/6 655/4/6
f 655/4/6 653/4/6 656/4/6
f 656/2/6 657/2/6 659/2/6
f 657/4/6 658/4/6 660/4/6
f 659/2/6 657/2/6 660/2/6
f 660/4/6 658/4/6 661/4/6
f 659/2/6 660/2/6 662/2/6
f 660/2/6 661/2/6 662/2/6
f 662/2/6 661/2/6 663/2/6
f 663/2/6 661/2/6 664/2/6
f 662/2/6 663/2/6 667/2/6
f 663/4/6 664/4/6 668/4/6
f 667/2/6 663/2/6 668/2/6
f 668/4/6 664/4/6 669/4/6
f 665/4/6 666/4/6 672/4/6
f 666/4/6 667/4/6 672/4/6
f 672/4/6 667/4/6 673/4/6
f 673/4/6 667/4/6 674/4/6
f 670/3/6 671/3/6 675/3/6
f 675/3/6 671/3/6 676/3/6
f 677/4/6 678/4/6 679/4/6
f 679/4/6 678/4/6 680/4/6
f 680/2/6 681/2/6 683/2/6
f 681/4/6 682/4/6 684/4/6
f 683/2/6 681/2/6 684/2/6
f 684/4/6 682/4/6 685/4/6
f 683/2/6 684/2/6 686/2/6
f 684/2/6 685/2/6 686/2/6
f 686/2/6 685/2/6 687/2/6
f 687/2/6 685/2/6 688/2/6
f 686/2/6 687/2/6 690/2/6
f 687/4/6 688/4/6 691/4/6
f 690/2/6 687/2/6 691/2/6
f 691/4/6 688/4/6 692/4/6
f 689/4/6 690/4/6 693/4/6
f 693/4/6 690/4/6 694/4/6
f 695/4/6 696/4/6 697/4/6
f 697/4/6 696/4/6 698/4/6
f 697/2/6 698/2/6 699/2/6
f 699/2/6 698/2/6 700/2/6
f 699/4/6 700/4/6 701/4/6
f 701/4/6 700/4/6 702/4/6
f 703/3/6 704/3/6 707/3/6
f 707/3/6 704/3/6 708/3/6
f 705/3/6 706/3/6 709/3/6
f 709/3/6 706/3/6 710/3/6
f 710/3/6 706/3/6 711/3/6
f 712/3/6 713/3/6 716/3/6
f 716/3/6 713/3/6 717/3/6
f 714/3/6 715/3/6 718/3/6
f 718/3/6 715/3/6 719/3/6
f 720/3/6 721/3/6 722/3/6
f 722/3/6 721/3/6 723/3/6
f 724/3/6 725/3/6 726/3/6
f 726/3/6 725/3/6 727/3/6
f 728/3/6 729/3/6 730/3/6
f 730/3/6 729/3/6 731/3/6
f 732/1/6 733/1/6 734/1/6
f 734/1/6 733/1/6 735/1/6
f 736/3/6 737/3/6 738/3/6
f 738/3/6 737/3/6 739/3/6
f 740/3/6 741/3/6 743/3/6
f 743/3/6 741/3/6 744/3/6
f 742/4/6 743/4/6 747/4/6
f 744/4/6 745/4/6 747/4/6
f 743/4/6 744/4/6 747/4/6
f 747/4/6 745/4/6 748/4/6
f 746/4/6 747/4/6 750/4/6
f 750/4/6 747/4/6 751/4/6
f 748/4/6 749/4/6 752/4/6
f 752/4/6 749/4/6 753/4/6
f 751/4/6 752/4/6 754/4/6
f 754/4/6 752/4/6 755/4/6
f 755/4/6 752/4/6 756/4/6
f 756/3/6 757/3/6 758/3/6
f 758/3/6 757/3/6 759/3/6
f 760/3/6 761/3/6 762/3/6
f 762/3/6 761/3/6 763/3/6
f 764/3/6 765/3/6 766/3/6
f 766/3/6 765/3/6 767/3/6
f 768/3/6 769/3/6 770/3/6
f 770/3/6 769/3/6 771/3/6
f 772/3/6 773/3/6 774/3/6
f 774/3/6 773/3/6 775/3/6
